[gd_scene load_steps=9 format=3 uid="uid://cv5bo45dh8x3x"]

[ext_resource type="Shader" uid="uid://0ijceipblevi" path="res://Escenes_Blender/shaders/main3D.tres" id="4_gp1vh"]

[sub_resource type="PhysicalSkyMaterial" id="PhysicalSkyMaterial_styxy"]

[sub_resource type="Sky" id="Sky_7f4bb"]
sky_material = SubResource("PhysicalSkyMaterial_styxy")

[sub_resource type="Environment" id="Environment_4ww7c"]
background_mode = 2
background_color = Color(0.298039, 0.298039, 0.298039, 1)
sky = SubResource("Sky_7f4bb")
glow_enabled = true
glow_normalized = true
glow_bloom = 1.0
glow_blend_mode = 1

[sub_resource type="StandardMaterial3D" id="StandardMaterial3D_gkfmg"]
resource_name = "Material"
cull_mode = 2
albedo_color = Color(0.906332, 0.906332, 0.906332, 1)
roughness = 0.5

[sub_resource type="ShaderMaterial" id="ShaderMaterial_vpker"]
render_priority = 0
shader = ExtResource("4_gp1vh")

[sub_resource type="ArrayMesh" id="ArrayMesh_ett5u"]
_surfaces = [{
"aabb": AABB(-1, -1, -1, 2.00001, 2, 2),
"format": 34896613377,
"index_count": 1428,
"index_data": PackedByteArray(169, 0, 1, 0, 50, 0, 169, 0, 98, 0, 1, 0, 37, 0, 120, 0, 156, 0, 37, 0, 86, 0, 120, 0, 84, 0, 180, 0, 122, 0, 84, 0, 60, 0, 180, 0, 144, 0, 73, 0, 24, 0, 144, 0, 132, 0, 73, 0, 2, 0, 74, 0, 49, 0, 2, 0, 26, 0, 74, 0, 61, 0, 109, 0, 182, 0, 61, 0, 13, 0, 109, 0, 14, 0, 157, 0, 108, 0, 14, 0, 36, 0, 157, 0, 121, 0, 232, 0, 158, 0, 121, 0, 208, 0, 232, 0, 62, 0, 38, 0, 12, 0, 62, 0, 85, 0, 38, 0, 134, 0, 240, 0, 170, 0, 134, 0, 216, 0, 240, 0, 97, 0, 224, 0, 145, 0, 97, 0, 192, 0, 224, 0, 110, 0, 248, 0, 181, 0, 110, 0, 200, 0, 248, 0, 133, 0, 48, 0, 72, 0, 133, 0, 168, 0, 48, 0, 170, 0, 192, 0, 97, 0, 170, 0, 240, 0, 192, 0, 181, 0, 208, 0, 121, 0, 181, 0, 248, 0, 208, 0, 158, 0, 200, 0, 110, 0, 158, 0, 232, 0, 200, 0, 145, 0, 216, 0, 134, 0, 145, 0, 224, 0, 216, 0, 0, 0, 5, 0, 3, 0, 0, 0, 4, 0, 5, 0, 3, 0, 8, 0, 7, 0, 3, 0, 5, 0, 8, 0, 1, 0, 8, 0, 6, 0, 1, 0, 7, 0, 8, 0, 6, 0, 11, 0, 10, 0, 6, 0, 8, 0, 11, 0, 2, 0, 11, 0, 9, 0, 2, 0, 10, 0, 11, 0, 9, 0, 5, 0, 4, 0, 9, 0, 11, 0, 5, 0, 5, 0, 11, 0, 8, 0, 12, 0, 17, 0, 15, 0, 12, 0, 16, 0, 17, 0, 15, 0, 20, 0, 19, 0, 15, 0, 17, 0, 20, 0, 13, 0, 20, 0, 18, 0, 13, 0, 19, 0, 20, 0, 18, 0, 23, 0, 22, 0, 18, 0, 20, 0, 23, 0, 14, 0, 23, 0, 21, 0, 14, 0, 22, 0, 23, 0, 21, 0, 17, 0, 16, 0, 21, 0, 23, 0, 17, 0, 17, 0, 23, 0, 20, 0, 24, 0, 29, 0, 27, 0, 24, 0, 28, 0, 29, 0, 27, 0, 32, 0, 31, 0, 27, 0, 29, 0, 32, 0, 25, 0, 32, 0, 30, 0, 25, 0, 31, 0, 32, 0, 30, 0, 35, 0, 34, 0, 30, 0, 32, 0, 35, 0, 26, 0, 35, 0, 33, 0, 26, 0, 34, 0, 35, 0, 33, 0, 29, 0, 28, 0, 33, 0, 35, 0, 29, 0, 29, 0, 35, 0, 32, 0, 36, 0, 41, 0, 39, 0, 36, 0, 40, 0, 41, 0, 39, 0, 44, 0, 43, 0, 39, 0, 41, 0, 44, 0, 37, 0, 44, 0, 42, 0, 37, 0, 43, 0, 44, 0, 42, 0, 47, 0, 46, 0, 42, 0, 44, 0, 47, 0, 38, 0, 47, 0, 45, 0, 38, 0, 46, 0, 47, 0, 45, 0, 41, 0, 40, 0, 45, 0, 47, 0, 41, 0, 41, 0, 47, 0, 44, 0, 48, 0, 53, 0, 51, 0, 48, 0, 52, 0, 53, 0, 51, 0, 56, 0, 55, 0, 51, 0, 53, 0, 56, 0, 49, 0, 56, 0, 54, 0, 49, 0, 55, 0, 56, 0, 54, 0, 59, 0, 58, 0, 54, 0, 56, 0, 59, 0, 50, 0, 59, 0, 57, 0, 50, 0, 58, 0, 59, 0, 57, 0, 53, 0, 52, 0, 57, 0, 59, 0, 53, 0, 53, 0, 59, 0, 56, 0, 60, 0, 65, 0, 63, 0, 60, 0, 64, 0, 65, 0, 63, 0, 68, 0, 67, 0, 63, 0, 65, 0, 68, 0, 61, 0, 68, 0, 66, 0, 61, 0, 67, 0, 68, 0, 66, 0, 71, 0, 70, 0, 66, 0, 68, 0, 71, 0, 62, 0, 71, 0, 69, 0, 62, 0, 70, 0, 71, 0, 69, 0, 65, 0, 64, 0, 69, 0, 71, 0, 65, 0, 65, 0, 71, 0, 68, 0, 72, 0, 77, 0, 75, 0, 72, 0, 76, 0, 77, 0, 75, 0, 80, 0, 79, 0, 75, 0, 77, 0, 80, 0, 73, 0, 80, 0, 78, 0, 73, 0, 79, 0, 80, 0, 78, 0, 83, 0, 82, 0, 78, 0, 80, 0, 83, 0, 74, 0, 83, 0, 81, 0, 74, 0, 82, 0, 83, 0, 81, 0, 77, 0, 76, 0, 81, 0, 83, 0, 77, 0, 77, 0, 83, 0, 80, 0, 84, 0, 89, 0, 87, 0, 84, 0, 88, 0, 89, 0, 87, 0, 92, 0, 91, 0, 87, 0, 89, 0, 92, 0, 85, 0, 92, 0, 90, 0, 85, 0, 91, 0, 92, 0, 90, 0, 95, 0, 94, 0, 90, 0, 92, 0, 95, 0, 86, 0, 95, 0, 93, 0, 86, 0, 94, 0, 95, 0, 93, 0, 89, 0, 88, 0, 93, 0, 95, 0, 89, 0, 89, 0, 95, 0, 92, 0, 96, 0, 101, 0, 99, 0, 96, 0, 100, 0, 101, 0, 99, 0, 104, 0, 103, 0, 99, 0, 101, 0, 104, 0, 97, 0, 104, 0, 102, 0, 97, 0, 103, 0, 104, 0, 102, 0, 107, 0, 106, 0, 102, 0, 104, 0, 107, 0, 98, 0, 107, 0, 105, 0, 98, 0, 106, 0, 107, 0, 105, 0, 101, 0, 100, 0, 105, 0, 107, 0, 101, 0, 101, 0, 107, 0, 104, 0, 108, 0, 113, 0, 111, 0, 108, 0, 112, 0, 113, 0, 111, 0, 116, 0, 115, 0, 111, 0, 113, 0, 116, 0, 109, 0, 116, 0, 114, 0, 109, 0, 115, 0, 116, 0, 114, 0, 119, 0, 118, 0, 114, 0, 116, 0, 119, 0, 110, 0, 119, 0, 117, 0, 110, 0, 118, 0, 119, 0, 117, 0, 113, 0, 112, 0, 117, 0, 119, 0, 113, 0, 113, 0, 119, 0, 116, 0, 120, 0, 125, 0, 123, 0, 120, 0, 124, 0, 125, 0, 123, 0, 128, 0, 127, 0, 123, 0, 125, 0, 128, 0, 121, 0, 128, 0, 126, 0, 121, 0, 127, 0, 128, 0, 126, 0, 131, 0, 130, 0, 126, 0, 128, 0, 131, 0, 122, 0, 131, 0, 129, 0, 122, 0, 130, 0, 131, 0, 129, 0, 125, 0, 124, 0, 129, 0, 131, 0, 125, 0, 125, 0, 131, 0, 128, 0, 132, 0, 137, 0, 135, 0, 132, 0, 136, 0, 137, 0, 135, 0, 140, 0, 139, 0, 135, 0, 137, 0, 140, 0, 133, 0, 140, 0, 138, 0, 133, 0, 139, 0, 140, 0, 138, 0, 143, 0, 142, 0, 138, 0, 140, 0, 143, 0, 134, 0, 143, 0, 141, 0, 134, 0, 142, 0, 143, 0, 141, 0, 137, 0, 136, 0, 141, 0, 143, 0, 137, 0, 137, 0, 143, 0, 140, 0, 144, 0, 149, 0, 147, 0, 144, 0, 148, 0, 149, 0, 147, 0, 152, 0, 151, 0, 147, 0, 149, 0, 152, 0, 145, 0, 152, 0, 150, 0, 145, 0, 151, 0, 152, 0, 150, 0, 155, 0, 154, 0, 150, 0, 152, 0, 155, 0, 146, 0, 155, 0, 153, 0, 146, 0, 154, 0, 155, 0, 153, 0, 149, 0, 148, 0, 153, 0, 155, 0, 149, 0, 149, 0, 155, 0, 152, 0, 156, 0, 161, 0, 159, 0, 156, 0, 160, 0, 161, 0, 159, 0, 164, 0, 163, 0, 159, 0, 161, 0, 164, 0, 157, 0, 164, 0, 162, 0, 157, 0, 163, 0, 164, 0, 162, 0, 167, 0, 166, 0, 162, 0, 164, 0, 167, 0, 158, 0, 167, 0, 165, 0, 158, 0, 166, 0, 167, 0, 165, 0, 161, 0, 160, 0, 165, 0, 167, 0, 161, 0, 161, 0, 167, 0, 164, 0, 168, 0, 173, 0, 171, 0, 168, 0, 172, 0, 173, 0, 171, 0, 176, 0, 175, 0, 171, 0, 173, 0, 176, 0, 169, 0, 176, 0, 174, 0, 169, 0, 175, 0, 176, 0, 174, 0, 179, 0, 178, 0, 174, 0, 176, 0, 179, 0, 170, 0, 179, 0, 177, 0, 170, 0, 178, 0, 179, 0, 177, 0, 173, 0, 172, 0, 177, 0, 179, 0, 173, 0, 173, 0, 179, 0, 176, 0, 180, 0, 185, 0, 183, 0, 180, 0, 184, 0, 185, 0, 183, 0, 188, 0, 187, 0, 183, 0, 185, 0, 188, 0, 181, 0, 188, 0, 186, 0, 181, 0, 187, 0, 188, 0, 186, 0, 191, 0, 190, 0, 186, 0, 188, 0, 191, 0, 182, 0, 191, 0, 189, 0, 182, 0, 190, 0, 191, 0, 189, 0, 185, 0, 184, 0, 189, 0, 191, 0, 185, 0, 185, 0, 191, 0, 188, 0, 195, 0, 199, 0, 198, 0, 195, 0, 196, 0, 199, 0, 192, 0, 199, 0, 197, 0, 192, 0, 198, 0, 199, 0, 197, 0, 194, 0, 193, 0, 197, 0, 199, 0, 194, 0, 194, 0, 199, 0, 196, 0, 201, 0, 205, 0, 204, 0, 201, 0, 202, 0, 205, 0, 200, 0, 205, 0, 203, 0, 200, 0, 204, 0, 205, 0, 203, 0, 207, 0, 206, 0, 203, 0, 205, 0, 207, 0, 202, 0, 207, 0, 205, 0, 211, 0, 215, 0, 214, 0, 211, 0, 212, 0, 215, 0, 208, 0, 215, 0, 213, 0, 208, 0, 214, 0, 215, 0, 213, 0, 210, 0, 209, 0, 213, 0, 215, 0, 210, 0, 210, 0, 215, 0, 212, 0, 217, 0, 221, 0, 220, 0, 217, 0, 218, 0, 221, 0, 216, 0, 221, 0, 219, 0, 216, 0, 220, 0, 221, 0, 219, 0, 223, 0, 222, 0, 219, 0, 221, 0, 223, 0, 218, 0, 223, 0, 221, 0, 227, 0, 231, 0, 230, 0, 227, 0, 228, 0, 231, 0, 224, 0, 231, 0, 229, 0, 224, 0, 230, 0, 231, 0, 229, 0, 226, 0, 225, 0, 229, 0, 231, 0, 226, 0, 226, 0, 231, 0, 228, 0, 233, 0, 237, 0, 236, 0, 233, 0, 234, 0, 237, 0, 232, 0, 237, 0, 235, 0, 232, 0, 236, 0, 237, 0, 235, 0, 239, 0, 238, 0, 235, 0, 237, 0, 239, 0, 234, 0, 239, 0, 237, 0, 241, 0, 245, 0, 244, 0, 241, 0, 242, 0, 245, 0, 240, 0, 245, 0, 243, 0, 240, 0, 244, 0, 245, 0, 243, 0, 247, 0, 246, 0, 243, 0, 245, 0, 247, 0, 242, 0, 247, 0, 245, 0, 251, 0, 255, 0, 254, 0, 251, 0, 252, 0, 255, 0, 248, 0, 255, 0, 253, 0, 248, 0, 254, 0, 255, 0, 253, 0, 250, 0, 249, 0, 253, 0, 255, 0, 250, 0, 250, 0, 255, 0, 252, 0, 62, 0, 91, 0, 85, 0, 62, 0, 69, 0, 91, 0, 69, 0, 87, 0, 91, 0, 69, 0, 64, 0, 87, 0, 64, 0, 84, 0, 87, 0, 64, 0, 60, 0, 84, 0, 12, 0, 70, 0, 62, 0, 12, 0, 15, 0, 70, 0, 15, 0, 66, 0, 70, 0, 15, 0, 19, 0, 66, 0, 19, 0, 61, 0, 66, 0, 19, 0, 13, 0, 61, 0, 108, 0, 22, 0, 14, 0, 108, 0, 111, 0, 22, 0, 111, 0, 18, 0, 22, 0, 111, 0, 115, 0, 18, 0, 115, 0, 13, 0, 18, 0, 115, 0, 109, 0, 13, 0, 132, 0, 79, 0, 73, 0, 132, 0, 135, 0, 79, 0, 135, 0, 75, 0, 79, 0, 135, 0, 139, 0, 75, 0, 139, 0, 72, 0, 75, 0, 139, 0, 133, 0, 72, 0, 156, 0, 43, 0, 37, 0, 156, 0, 159, 0, 43, 0, 159, 0, 39, 0, 43, 0, 159, 0, 163, 0, 39, 0, 163, 0, 36, 0, 39, 0, 163, 0, 157, 0, 36, 0, 182, 0, 67, 0, 61, 0, 182, 0, 189, 0, 67, 0, 189, 0, 63, 0, 67, 0, 189, 0, 184, 0, 63, 0, 184, 0, 60, 0, 63, 0, 184, 0, 180, 0, 60, 0, 26, 0, 82, 0, 74, 0, 26, 0, 33, 0, 82, 0, 33, 0, 78, 0, 82, 0, 33, 0, 28, 0, 78, 0, 28, 0, 73, 0, 78, 0, 28, 0, 24, 0, 73, 0, 2, 0, 34, 0, 26, 0, 2, 0, 9, 0, 34, 0, 9, 0, 30, 0, 34, 0, 9, 0, 4, 0, 30, 0, 4, 0, 25, 0, 30, 0, 4, 0, 0, 0, 25, 0, 85, 0, 46, 0, 38, 0, 85, 0, 90, 0, 46, 0, 90, 0, 42, 0, 46, 0, 90, 0, 94, 0, 42, 0, 94, 0, 37, 0, 42, 0, 94, 0, 86, 0, 37, 0, 74, 0, 55, 0, 49, 0, 74, 0, 81, 0, 55, 0, 81, 0, 51, 0, 55, 0, 81, 0, 76, 0, 51, 0, 76, 0, 48, 0, 51, 0, 76, 0, 72, 0, 48, 0, 49, 0, 10, 0, 2, 0, 49, 0, 54, 0, 10, 0, 54, 0, 6, 0, 10, 0, 54, 0, 58, 0, 6, 0, 58, 0, 1, 0, 6, 0, 58, 0, 50, 0, 1, 0, 38, 0, 16, 0, 12, 0, 38, 0, 45, 0, 16, 0, 45, 0, 21, 0, 16, 0, 45, 0, 40, 0, 21, 0, 40, 0, 14, 0, 21, 0, 40, 0, 36, 0, 14, 0, 0, 0, 100, 0, 96, 0, 0, 0, 3, 0, 100, 0, 3, 0, 105, 0, 100, 0, 3, 0, 7, 0, 105, 0, 7, 0, 98, 0, 105, 0, 7, 0, 1, 0, 98, 0, 86, 0, 124, 0, 120, 0, 86, 0, 93, 0, 124, 0, 93, 0, 129, 0, 124, 0, 93, 0, 88, 0, 129, 0, 88, 0, 122, 0, 129, 0, 88, 0, 84, 0, 122, 0, 24, 0, 148, 0, 144, 0, 24, 0, 27, 0, 148, 0, 27, 0, 153, 0, 148, 0, 27, 0, 31, 0, 153, 0, 31, 0, 146, 0, 153, 0, 31, 0, 25, 0, 146, 0, 50, 0, 175, 0, 169, 0, 50, 0, 57, 0, 175, 0, 57, 0, 171, 0, 175, 0, 57, 0, 52, 0, 171, 0, 52, 0, 168, 0, 171, 0, 52, 0, 48, 0, 168, 0, 181, 0, 118, 0, 110, 0, 181, 0, 186, 0, 118, 0, 186, 0, 114, 0, 118, 0, 186, 0, 190, 0, 114, 0, 190, 0, 109, 0, 114, 0, 190, 0, 182, 0, 109, 0, 169, 0, 106, 0, 98, 0, 169, 0, 174, 0, 106, 0, 174, 0, 102, 0, 106, 0, 174, 0, 178, 0, 102, 0, 178, 0, 97, 0, 102, 0, 178, 0, 170, 0, 97, 0, 110, 0, 166, 0, 158, 0, 110, 0, 117, 0, 166, 0, 117, 0, 162, 0, 166, 0, 117, 0, 112, 0, 162, 0, 112, 0, 157, 0, 162, 0, 112, 0, 108, 0, 157, 0, 96, 0, 154, 0, 146, 0, 96, 0, 99, 0, 154, 0, 99, 0, 150, 0, 154, 0, 99, 0, 103, 0, 150, 0, 103, 0, 145, 0, 150, 0, 103, 0, 97, 0, 145, 0, 121, 0, 187, 0, 181, 0, 121, 0, 126, 0, 187, 0, 126, 0, 183, 0, 187, 0, 126, 0, 130, 0, 183, 0, 130, 0, 180, 0, 183, 0, 130, 0, 122, 0, 180, 0, 133, 0, 172, 0, 168, 0, 133, 0, 138, 0, 172, 0, 138, 0, 177, 0, 172, 0, 138, 0, 142, 0, 177, 0, 142, 0, 170, 0, 177, 0, 142, 0, 134, 0, 170, 0, 158, 0, 127, 0, 121, 0, 158, 0, 165, 0, 127, 0, 165, 0, 123, 0, 127, 0, 165, 0, 160, 0, 123, 0, 160, 0, 120, 0, 123, 0, 160, 0, 156, 0, 120, 0, 144, 0, 136, 0, 132, 0, 144, 0, 147, 0, 136, 0, 147, 0, 141, 0, 136, 0, 147, 0, 151, 0, 141, 0, 151, 0, 134, 0, 141, 0, 151, 0, 145, 0, 134, 0, 251, 0, 203, 0, 206, 0, 251, 0, 254, 0, 203, 0, 254, 0, 200, 0, 203, 0, 254, 0, 248, 0, 200, 0, 240, 0, 198, 0, 192, 0, 240, 0, 243, 0, 198, 0, 243, 0, 195, 0, 198, 0, 243, 0, 246, 0, 195, 0, 201, 0, 235, 0, 238, 0, 201, 0, 204, 0, 235, 0, 204, 0, 232, 0, 235, 0, 204, 0, 200, 0, 232, 0, 192, 0, 230, 0, 224, 0, 192, 0, 197, 0, 230, 0, 197, 0, 227, 0, 230, 0, 197, 0, 193, 0, 227, 0, 211, 0, 253, 0, 249, 0, 211, 0, 214, 0, 253, 0, 214, 0, 248, 0, 253, 0, 214, 0, 208, 0, 248, 0, 216, 0, 244, 0, 240, 0, 216, 0, 219, 0, 244, 0, 219, 0, 241, 0, 244, 0, 219, 0, 222, 0, 241, 0, 233, 0, 213, 0, 209, 0, 233, 0, 236, 0, 213, 0, 236, 0, 208, 0, 213, 0, 236, 0, 232, 0, 208, 0, 224, 0, 220, 0, 216, 0, 224, 0, 229, 0, 220, 0, 229, 0, 217, 0, 220, 0, 229, 0, 225, 0, 217, 0, 96, 0, 25, 0, 0, 0, 96, 0, 146, 0, 25, 0),
"lods": [0.187495, PackedByteArray(57, 0, 105, 0, 6, 0, 57, 0, 6, 0, 59, 0, 6, 0, 105, 0, 8, 0, 57, 0, 178, 0, 105, 0, 178, 0, 57, 0, 179, 0, 178, 0, 102, 0, 105, 0, 102, 0, 104, 0, 105, 0, 42, 0, 123, 0, 160, 0, 42, 0, 93, 0, 123, 0, 123, 0, 93, 0, 125, 0, 93, 0, 42, 0, 95, 0, 160, 0, 43, 0, 42, 0, 42, 0, 43, 0, 44, 0, 160, 0, 161, 0, 43, 0, 89, 0, 183, 0, 130, 0, 89, 0, 184, 0, 183, 0, 183, 0, 184, 0, 185, 0, 184, 0, 89, 0, 65, 0, 89, 0, 130, 0, 93, 0, 93, 0, 130, 0, 125, 0, 93, 0, 95, 0, 89, 0, 151, 0, 135, 0, 28, 0, 28, 0, 135, 0, 80, 0, 151, 0, 141, 0, 135, 0, 141, 0, 143, 0, 135, 0, 28, 0, 153, 0, 151, 0, 151, 0, 153, 0, 152, 0, 153, 0, 28, 0, 32, 0, 8, 0, 80, 0, 53, 0, 8, 0, 32, 0, 80, 0, 32, 0, 28, 0, 80, 0, 53, 0, 6, 0, 8, 0, 6, 0, 53, 0, 59, 0, 8, 0, 4, 0, 32, 0, 68, 0, 118, 0, 184, 0, 186, 0, 184, 0, 118, 0, 184, 0, 186, 0, 185, 0, 118, 0, 68, 0, 22, 0, 22, 0, 68, 0, 23, 0, 22, 0, 113, 0, 118, 0, 118, 0, 113, 0, 119, 0, 184, 0, 65, 0, 68, 0, 40, 0, 162, 0, 112, 0, 112, 0, 22, 0, 40, 0, 112, 0, 113, 0, 22, 0, 40, 0, 22, 0, 23, 0, 162, 0, 40, 0, 43, 0, 43, 0, 40, 0, 44, 0, 43, 0, 164, 0, 162, 0, 43, 0, 161, 0, 164, 0, 121, 0, 232, 0, 158, 0, 158, 0, 127, 0, 121, 0, 160, 0, 123, 0, 127, 0, 158, 0, 160, 0, 127, 0, 158, 0, 166, 0, 160, 0, 160, 0, 166, 0, 161, 0, 161, 0, 166, 0, 164, 0, 162, 0, 164, 0, 166, 0, 158, 0, 232, 0, 200, 0, 158, 0, 200, 0, 110, 0, 110, 0, 166, 0, 158, 0, 112, 0, 162, 0, 166, 0, 110, 0, 112, 0, 166, 0, 112, 0, 119, 0, 113, 0, 110, 0, 119, 0, 112, 0, 110, 0, 118, 0, 119, 0, 110, 0, 200, 0, 248, 0, 204, 0, 200, 0, 232, 0, 201, 0, 204, 0, 238, 0, 204, 0, 232, 0, 238, 0, 232, 0, 237, 0, 238, 0, 238, 0, 237, 0, 239, 0, 232, 0, 236, 0, 237, 0, 233, 0, 237, 0, 236, 0, 233, 0, 234, 0, 237, 0, 254, 0, 248, 0, 200, 0, 254, 0, 200, 0, 206, 0, 251, 0, 254, 0, 206, 0, 200, 0, 204, 0, 206, 0, 206, 0, 204, 0, 207, 0, 202, 0, 207, 0, 204, 0, 201, 0, 202, 0, 204, 0, 110, 0, 248, 0, 181, 0, 181, 0, 118, 0, 110, 0, 181, 0, 186, 0, 118, 0, 181, 0, 187, 0, 186, 0, 183, 0, 186, 0, 187, 0, 183, 0, 185, 0, 186, 0, 181, 0, 248, 0, 208, 0, 214, 0, 208, 0, 248, 0, 214, 0, 248, 0, 249, 0, 211, 0, 214, 0, 249, 0, 248, 0, 254, 0, 249, 0, 249, 0, 254, 0, 250, 0, 250, 0, 254, 0, 252, 0, 251, 0, 252, 0, 254, 0, 181, 0, 208, 0, 121, 0, 121, 0, 187, 0, 181, 0, 121, 0, 130, 0, 187, 0, 130, 0, 183, 0, 187, 0, 121, 0, 127, 0, 130, 0, 125, 0, 130, 0, 127, 0, 123, 0, 125, 0, 127, 0, 121, 0, 208, 0, 232, 0, 236, 0, 232, 0, 208, 0, 236, 0, 208, 0, 209, 0, 233, 0, 236, 0, 209, 0, 208, 0, 215, 0, 209, 0, 209, 0, 215, 0, 210, 0, 208, 0, 214, 0, 215, 0, 211, 0, 215, 0, 214, 0, 211, 0, 212, 0, 215, 0, 68, 0, 44, 0, 23, 0, 44, 0, 40, 0, 23, 0, 68, 0, 89, 0, 44, 0, 89, 0, 68, 0, 65, 0, 89, 0, 42, 0, 44, 0, 42, 0, 89, 0, 95, 0, 134, 0, 240, 0, 170, 0, 170, 0, 178, 0, 179, 0, 170, 0, 179, 0, 177, 0, 142, 0, 170, 0, 177, 0, 142, 0, 134, 0, 170, 0, 134, 0, 142, 0, 143, 0, 134, 0, 143, 0, 141, 0, 151, 0, 134, 0, 141, 0, 151, 0, 145, 0, 134, 0, 145, 0, 151, 0, 152, 0, 145, 0, 152, 0, 150, 0, 103, 0, 145, 0, 150, 0, 103, 0, 97, 0, 145, 0, 145, 0, 216, 0, 134, 0, 178, 0, 170, 0, 97, 0, 178, 0, 97, 0, 102, 0, 97, 0, 104, 0, 102, 0, 97, 0, 103, 0, 104, 0, 97, 0, 224, 0, 145, 0, 145, 0, 224, 0, 216, 0, 170, 0, 192, 0, 97, 0, 97, 0, 192, 0, 224, 0, 170, 0, 240, 0, 192, 0, 134, 0, 216, 0, 240, 0, 224, 0, 220, 0, 216, 0, 224, 0, 225, 0, 220, 0, 225, 0, 217, 0, 220, 0, 224, 0, 230, 0, 225, 0, 225, 0, 230, 0, 226, 0, 226, 0, 230, 0, 228, 0, 227, 0, 228, 0, 230, 0, 192, 0, 230, 0, 224, 0, 192, 0, 193, 0, 230, 0, 193, 0, 227, 0, 230, 0, 192, 0, 199, 0, 193, 0, 193, 0, 199, 0, 194, 0, 192, 0, 198, 0, 199, 0, 195, 0, 199, 0, 198, 0, 195, 0, 196, 0, 199, 0, 240, 0, 198, 0, 192, 0, 240, 0, 246, 0, 198, 0, 246, 0, 195, 0, 198, 0, 240, 0, 245, 0, 246, 0, 246, 0, 245, 0, 247, 0, 240, 0, 244, 0, 245, 0, 241, 0, 245, 0, 244, 0, 241, 0, 242, 0, 245, 0, 216, 0, 244, 0, 240, 0, 216, 0, 222, 0, 244, 0, 222, 0, 241, 0, 244, 0, 216, 0, 220, 0, 222, 0, 222, 0, 220, 0, 223, 0, 218, 0, 223, 0, 220, 0, 217, 0, 218, 0, 220, 0, 142, 0, 177, 0, 53, 0, 53, 0, 177, 0, 57, 0, 177, 0, 179, 0, 57, 0, 142, 0, 53, 0, 135, 0, 135, 0, 53, 0, 80, 0, 142, 0, 135, 0, 143, 0, 57, 0, 59, 0, 53, 0, 105, 0, 4, 0, 8, 0, 4, 0, 105, 0, 103, 0, 103, 0, 105, 0, 104, 0, 103, 0, 153, 0, 4, 0, 4, 0, 153, 0, 32, 0, 103, 0, 150, 0, 153, 0, 150, 0, 152, 0, 153, 0, 194, 0, 199, 0, 196, 0, 210, 0, 215, 0, 212, 0, 234, 0, 239, 0, 237, 0, 242, 0, 247, 0, 245, 0)],
"name": "Material",
"primitive": 3,
"uv_scale": Vector4(0, 0, 0, 0),
"vertex_count": 256,
"vertex_data": PackedByteArray(254, 255, 224, 250, 30, 5, 0, 0, 223, 250, 224, 250, 0, 0, 0, 0, 223, 250, 255, 255, 30, 5, 0, 0, 79, 255, 224, 250, 144, 2, 0, 0, 79, 255, 110, 253, 30, 5, 0, 0, 165, 254, 83, 253, 171, 2, 0, 0, 223, 250, 110, 253, 175, 0, 0, 0, 110, 253, 224, 250, 175, 0, 0, 0, 82, 253, 83, 253, 89, 1, 0, 0, 110, 253, 79, 255, 30, 5, 0, 0, 223, 250, 79, 255, 144, 2, 0, 0, 82, 253, 165, 254, 171, 2, 0, 0, 223, 250, 0, 0, 30, 5, 0, 0, 223, 250, 30, 5, 0, 0, 0, 0, 254, 255, 30, 5, 30, 5, 0, 0, 223, 250, 175, 0, 144, 2, 0, 0, 110, 253, 175, 0, 30, 5, 0, 0, 82, 253, 89, 1, 171, 2, 0, 0, 110, 253, 30, 5, 175, 0, 0, 0, 223, 250, 144, 2, 175, 0, 0, 0, 82, 253, 171, 2, 89, 1, 0, 0, 79, 255, 144, 2, 30, 5, 0, 0, 79, 255, 30, 5, 144, 2, 0, 0, 165, 254, 171, 2, 171, 2, 0, 0, 223, 250, 224, 250, 255, 255, 0, 0, 254, 255, 224, 250, 224, 250, 0, 0, 223, 250, 255, 255, 224, 250, 0, 0, 110, 253, 224, 250, 79, 255, 0, 0, 223, 250, 110, 253, 79, 255, 0, 0, 82, 253, 83, 253, 165, 254, 0, 0, 79, 255, 110, 253, 224, 250, 0, 0, 79, 255, 224, 250, 110, 253, 0, 0, 165, 254, 83, 253, 83, 253, 0, 0, 223, 250, 79, 255, 110, 253, 0, 0, 110, 253, 79, 255, 224, 250, 0, 0, 82, 253, 165, 254, 83, 253, 0, 0, 254, 255, 30, 5, 224, 250, 0, 0, 223, 250, 30, 5, 255, 255, 0, 0, 223, 250, 0, 0, 224, 250, 0, 0, 79, 255, 30, 5, 110, 253, 0, 0, 79, 255, 144, 2, 224, 250, 0, 0, 165, 254, 171, 2, 83, 253, 0, 0, 223, 250, 144, 2, 79, 255, 0, 0, 110, 253, 30, 5, 79, 255, 0, 0, 82, 253, 171, 2, 165, 254, 0, 0, 110, 253, 175, 0, 224, 250, 0, 0, 223, 250, 175, 0, 110, 253, 0, 0, 82, 253, 89, 1, 83, 253, 0, 0, 0, 0, 224, 250, 30, 5, 0, 0, 30, 5, 255, 255, 30, 5, 0, 0, 30, 5, 224, 250, 0, 0, 0, 0, 175, 0, 110, 253, 30, 5, 0, 0, 175, 0, 224, 250, 144, 2, 0, 0, 89, 1, 83, 253, 171, 2, 0, 0, 30, 5, 79, 255, 144, 2, 0, 0, 144, 2, 79, 255, 30, 5, 0, 0, 171, 2, 165, 254, 171, 2, 0, 0, 144, 2, 224, 250, 175, 0, 0, 0, 30, 5, 110, 253, 175, 0, 0, 0, 171, 2, 83, 253, 89, 1, 0, 0, 0, 0, 30, 5, 30, 5, 0, 0, 30, 5, 30, 5, 0, 0, 0, 0, 30, 5, 0, 0, 30, 5, 0, 0, 175, 0, 30, 5, 144, 2, 0, 0, 175, 0, 144, 2, 30, 5, 0, 0, 89, 1, 171, 2, 171, 2, 0, 0, 30, 5, 144, 2, 175, 0, 0, 0, 144, 2, 30, 5, 175, 0, 0, 0, 171, 2, 171, 2, 89, 1, 0, 0, 144, 2, 175, 0, 30, 5, 0, 0, 30, 5, 175, 0, 144, 2, 0, 0, 171, 2, 89, 1, 171, 2, 0, 0, 0, 0, 224, 250, 224, 250, 0, 0, 30, 5, 224, 250, 255, 255, 0, 0, 30, 5, 255, 255, 224, 250, 0, 0, 175, 0, 224, 250, 110, 253, 0, 0, 175, 0, 110, 253, 224, 250, 0, 0, 89, 1, 83, 253, 83, 253, 0, 0, 30, 5, 110, 253, 79, 255, 0, 0, 144, 2, 224, 250, 79, 255, 0, 0, 171, 2, 83, 253, 165, 254, 0, 0, 144, 2, 79, 255, 224, 250, 0, 0, 30, 5, 79, 255, 110, 253, 0, 0, 171, 2, 165, 254, 83, 253, 0, 0, 0, 0, 30, 5, 224, 250, 0, 0, 30, 5, 0, 0, 224, 250, 0, 0, 30, 5, 30, 5, 255, 255, 0, 0, 175, 0, 144, 2, 224, 250, 0, 0, 175, 0, 30, 5, 110, 253, 0, 0, 89, 1, 171, 2, 83, 253, 0, 0, 30, 5, 175, 0, 110, 253, 0, 0, 144, 2, 175, 0, 224, 250, 0, 0, 171, 2, 89, 1, 83, 253, 0, 0, 144, 2, 30, 5, 79, 255, 0, 0, 30, 5, 144, 2, 79, 255, 0, 0, 171, 2, 171, 2, 165, 254, 0, 0, 254, 255, 200, 175, 30, 5, 0, 0, 35, 251, 11, 169, 219, 4, 0, 0, 223, 250, 200, 175, 0, 0, 0, 0, 100, 255, 183, 172, 9, 5, 0, 0, 67, 255, 20, 176, 156, 2, 0, 0, 174, 254, 31, 173, 163, 2, 0, 0, 13, 251, 61, 170, 98, 2, 0, 0, 156, 253, 61, 170, 240, 4, 0, 0, 109, 253, 97, 171, 145, 2, 0, 0, 98, 253, 20, 176, 187, 0, 0, 0, 245, 250, 183, 172, 153, 0, 0, 0, 91, 253, 31, 173, 80, 1, 0, 0, 254, 255, 54, 80, 30, 5, 0, 0, 223, 250, 54, 80, 0, 0, 0, 0, 35, 251, 243, 86, 219, 4, 0, 0, 67, 255, 234, 79, 156, 2, 0, 0, 100, 255, 71, 83, 9, 5, 0, 0, 174, 254, 223, 82, 163, 2, 0, 0, 245, 250, 71, 83, 153, 0, 0, 0, 98, 253, 234, 79, 187, 0, 0, 0, 91, 253, 223, 82, 80, 1, 0, 0, 156, 253, 193, 85, 240, 4, 0, 0, 13, 251, 193, 85, 98, 2, 0, 0, 109, 253, 157, 84, 145, 2, 0, 0, 30, 5, 54, 80, 255, 255, 0, 0, 219, 4, 243, 86, 35, 251, 0, 0, 0, 0, 54, 80, 224, 250, 0, 0, 9, 5, 71, 83, 101, 255, 0, 0, 156, 2, 234, 79, 67, 255, 0, 0, 163, 2, 223, 82, 174, 254, 0, 0, 98, 2, 193, 85, 14, 251, 0, 0, 240, 4, 193, 85, 156, 253, 0, 0, 145, 2, 157, 84, 109, 253, 0, 0, 187, 0, 234, 79, 98, 253, 0, 0, 153, 0, 71, 83, 245, 250, 0, 0, 80, 1, 223, 82, 91, 253, 0, 0, 30, 5, 200, 175, 255, 255, 0, 0, 0, 0, 200, 175, 224, 250, 0, 0, 219, 4, 11, 169, 35, 251, 0, 0, 156, 2, 20, 176, 67, 255, 0, 0, 9, 5, 183, 172, 101, 255, 0, 0, 163, 2, 31, 173, 174, 254, 0, 0, 153, 0, 183, 172, 245, 250, 0, 0, 187, 0, 20, 176, 98, 253, 0, 0, 80, 1, 31, 173, 91, 253, 0, 0, 240, 4, 61, 170, 156, 253, 0, 0, 98, 2, 61, 170, 14, 251, 0, 0, 145, 2, 97, 171, 109, 253, 0, 0, 223, 250, 200, 175, 255, 255, 0, 0, 35, 251, 11, 169, 35, 251, 0, 0, 254, 255, 200, 175, 224, 250, 0, 0, 245, 250, 183, 172, 101, 255, 0, 0, 98, 253, 20, 176, 67, 255, 0, 0, 91, 253, 31, 173, 174, 254, 0, 0, 156, 253, 61, 170, 14, 251, 0, 0, 13, 251, 61, 170, 156, 253, 0, 0, 109, 253, 97, 171, 109, 253, 0, 0, 67, 255, 20, 176, 98, 253, 0, 0, 100, 255, 183, 172, 245, 250, 0, 0, 174, 254, 31, 173, 91, 253, 0, 0, 223, 250, 54, 80, 255, 255, 0, 0, 254, 255, 54, 80, 224, 250, 0, 0, 35, 251, 243, 86, 35, 251, 0, 0, 98, 253, 234, 79, 67, 255, 0, 0, 245, 250, 71, 83, 101, 255, 0, 0, 91, 253, 223, 82, 174, 254, 0, 0, 100, 255, 71, 83, 245, 250, 0, 0, 67, 255, 234, 79, 98, 253, 0, 0, 174, 254, 223, 82, 91, 253, 0, 0, 13, 251, 193, 85, 156, 253, 0, 0, 156, 253, 193, 85, 14, 251, 0, 0, 109, 253, 157, 84, 109, 253, 0, 0, 0, 0, 200, 175, 30, 5, 0, 0, 30, 5, 200, 175, 0, 0, 0, 0, 219, 4, 11, 169, 219, 4, 0, 0, 187, 0, 20, 176, 156, 2, 0, 0, 153, 0, 183, 172, 9, 5, 0, 0, 80, 1, 31, 173, 163, 2, 0, 0, 9, 5, 183, 172, 153, 0, 0, 0, 156, 2, 20, 176, 187, 0, 0, 0, 163, 2, 31, 173, 80, 1, 0, 0, 98, 2, 61, 170, 240, 4, 0, 0, 240, 4, 61, 170, 98, 2, 0, 0, 145, 2, 97, 171, 145, 2, 0, 0, 0, 0, 54, 80, 30, 5, 0, 0, 219, 4, 243, 86, 219, 4, 0, 0, 30, 5, 54, 80, 0, 0, 0, 0, 153, 0, 71, 83, 9, 5, 0, 0, 187, 0, 234, 79, 156, 2, 0, 0, 80, 1, 223, 82, 163, 2, 0, 0, 240, 4, 193, 85, 98, 2, 0, 0, 98, 2, 193, 85, 240, 4, 0, 0, 145, 2, 157, 84, 145, 2, 0, 0, 156, 2, 234, 79, 187, 0, 0, 0, 9, 5, 71, 83, 153, 0, 0, 0, 163, 2, 223, 82, 80, 1, 0, 0, 193, 232, 234, 162, 61, 23, 0, 0, 156, 228, 234, 158, 12, 30, 0, 0, 219, 227, 202, 158, 0, 29, 0, 0, 241, 225, 234, 158, 98, 27, 0, 0, 254, 226, 202, 158, 34, 28, 0, 0, 98, 230, 96, 161, 104, 26, 0, 0, 150, 229, 96, 161, 156, 25, 0, 0, 170, 228, 112, 160, 83, 27, 0, 0, 193, 232, 20, 93, 61, 23, 0, 0, 156, 228, 20, 97, 12, 30, 0, 0, 219, 227, 52, 97, 0, 29, 0, 0, 150, 229, 158, 94, 156, 25, 0, 0, 98, 230, 158, 94, 104, 26, 0, 0, 170, 228, 142, 95, 83, 27, 0, 0, 241, 225, 20, 97, 98, 27, 0, 0, 254, 226, 52, 97, 34, 28, 0, 0, 61, 23, 20, 93, 193, 232, 0, 0, 12, 30, 20, 97, 156, 228, 0, 0, 0, 29, 52, 97, 220, 227, 0, 0, 98, 27, 20, 97, 242, 225, 0, 0, 34, 28, 52, 97, 254, 226, 0, 0, 104, 26, 158, 94, 98, 230, 0, 0, 156, 25, 158, 94, 150, 229, 0, 0, 83, 27, 142, 95, 171, 228, 0, 0, 61, 23, 234, 162, 193, 232, 0, 0, 12, 30, 234, 158, 156, 228, 0, 0, 0, 29, 202, 158, 220, 227, 0, 0, 156, 25, 96, 161, 150, 229, 0, 0, 104, 26, 96, 161, 98, 230, 0, 0, 83, 27, 112, 160, 171, 228, 0, 0, 98, 27, 234, 158, 242, 225, 0, 0, 34, 28, 202, 158, 254, 226, 0, 0, 193, 232, 234, 162, 193, 232, 0, 0, 241, 225, 234, 158, 156, 228, 0, 0, 254, 226, 202, 158, 220, 227, 0, 0, 156, 228, 234, 158, 242, 225, 0, 0, 219, 227, 202, 158, 254, 226, 0, 0, 150, 229, 96, 161, 98, 230, 0, 0, 98, 230, 96, 161, 150, 229, 0, 0, 170, 228, 112, 160, 171, 228, 0, 0, 193, 232, 20, 93, 193, 232, 0, 0, 241, 225, 20, 97, 156, 228, 0, 0, 254, 226, 52, 97, 220, 227, 0, 0, 98, 230, 158, 94, 150, 229, 0, 0, 150, 229, 158, 94, 98, 230, 0, 0, 170, 228, 142, 95, 171, 228, 0, 0, 156, 228, 20, 97, 242, 225, 0, 0, 219, 227, 52, 97, 254, 226, 0, 0, 61, 23, 234, 162, 61, 23, 0, 0, 98, 27, 234, 158, 12, 30, 0, 0, 34, 28, 202, 158, 0, 29, 0, 0, 104, 26, 96, 161, 156, 25, 0, 0, 156, 25, 96, 161, 104, 26, 0, 0, 83, 27, 112, 160, 83, 27, 0, 0, 12, 30, 234, 158, 98, 27, 0, 0, 0, 29, 202, 158, 34, 28, 0, 0, 61, 23, 20, 93, 61, 23, 0, 0, 98, 27, 20, 97, 12, 30, 0, 0, 34, 28, 52, 97, 0, 29, 0, 0, 12, 30, 20, 97, 98, 27, 0, 0, 0, 29, 52, 97, 34, 28, 0, 0, 156, 25, 158, 94, 104, 26, 0, 0, 104, 26, 158, 94, 156, 25, 0, 0, 83, 27, 142, 95, 83, 27, 0, 0)
}, {
"aabb": AABB(-0.786051, -0.241549, -0.786051, 1.5721, 0.483097, 1.5721),
"format": 34896613377,
"index_count": 288,
"index_data": PackedByteArray(40, 0, 24, 0, 32, 0, 40, 0, 16, 0, 24, 0, 57, 0, 1, 0, 49, 0, 57, 0, 9, 0, 1, 0, 17, 0, 48, 0, 25, 0, 17, 0, 56, 0, 48, 0, 8, 0, 33, 0, 0, 0, 8, 0, 41, 0, 33, 0, 0, 0, 4, 0, 2, 0, 0, 0, 3, 0, 4, 0, 2, 0, 7, 0, 6, 0, 2, 0, 4, 0, 7, 0, 1, 0, 7, 0, 5, 0, 1, 0, 6, 0, 7, 0, 8, 0, 12, 0, 10, 0, 8, 0, 11, 0, 12, 0, 9, 0, 15, 0, 13, 0, 9, 0, 14, 0, 15, 0, 13, 0, 12, 0, 11, 0, 13, 0, 15, 0, 12, 0, 16, 0, 20, 0, 18, 0, 16, 0, 19, 0, 20, 0, 18, 0, 23, 0, 22, 0, 18, 0, 20, 0, 23, 0, 17, 0, 23, 0, 21, 0, 17, 0, 22, 0, 23, 0, 24, 0, 28, 0, 26, 0, 24, 0, 27, 0, 28, 0, 25, 0, 31, 0, 29, 0, 25, 0, 30, 0, 31, 0, 29, 0, 28, 0, 27, 0, 29, 0, 31, 0, 28, 0, 32, 0, 36, 0, 34, 0, 32, 0, 35, 0, 36, 0, 34, 0, 39, 0, 38, 0, 34, 0, 36, 0, 39, 0, 33, 0, 39, 0, 37, 0, 33, 0, 38, 0, 39, 0, 40, 0, 44, 0, 42, 0, 40, 0, 43, 0, 44, 0, 41, 0, 47, 0, 45, 0, 41, 0, 46, 0, 47, 0, 45, 0, 44, 0, 43, 0, 45, 0, 47, 0, 44, 0, 48, 0, 52, 0, 50, 0, 48, 0, 51, 0, 52, 0, 49, 0, 55, 0, 53, 0, 49, 0, 54, 0, 55, 0, 53, 0, 52, 0, 51, 0, 53, 0, 55, 0, 52, 0, 56, 0, 60, 0, 58, 0, 56, 0, 59, 0, 60, 0, 58, 0, 63, 0, 62, 0, 58, 0, 60, 0, 63, 0, 57, 0, 63, 0, 61, 0, 57, 0, 62, 0, 63, 0, 0, 0, 11, 0, 8, 0, 0, 0, 2, 0, 11, 0, 2, 0, 13, 0, 11, 0, 2, 0, 6, 0, 13, 0, 6, 0, 9, 0, 13, 0, 6, 0, 1, 0, 9, 0, 16, 0, 27, 0, 24, 0, 16, 0, 18, 0, 27, 0, 18, 0, 29, 0, 27, 0, 18, 0, 22, 0, 29, 0, 22, 0, 25, 0, 29, 0, 22, 0, 17, 0, 25, 0, 32, 0, 43, 0, 40, 0, 32, 0, 34, 0, 43, 0, 34, 0, 45, 0, 43, 0, 34, 0, 38, 0, 45, 0, 38, 0, 41, 0, 45, 0, 38, 0, 33, 0, 41, 0, 49, 0, 62, 0, 57, 0, 49, 0, 53, 0, 62, 0, 53, 0, 58, 0, 62, 0, 53, 0, 51, 0, 58, 0, 51, 0, 56, 0, 58, 0, 51, 0, 48, 0, 56, 0, 57, 0, 14, 0, 9, 0, 57, 0, 61, 0, 14, 0, 54, 0, 1, 0, 5, 0, 54, 0, 49, 0, 1, 0, 8, 0, 46, 0, 41, 0, 8, 0, 10, 0, 46, 0, 3, 0, 33, 0, 37, 0, 3, 0, 0, 0, 33, 0, 17, 0, 59, 0, 56, 0, 17, 0, 21, 0, 59, 0, 30, 0, 48, 0, 50, 0, 30, 0, 25, 0, 48, 0, 40, 0, 19, 0, 16, 0, 40, 0, 42, 0, 19, 0, 35, 0, 24, 0, 26, 0, 35, 0, 32, 0, 24, 0),
"lods": [0.0644553, PackedByteArray(61, 0, 5, 0, 54, 0, 61, 0, 14, 0, 5, 0, 54, 0, 51, 0, 61, 0, 61, 0, 51, 0, 63, 0, 51, 0, 60, 0, 63, 0, 54, 0, 55, 0, 51, 0, 51, 0, 55, 0, 52, 0, 11, 0, 5, 0, 14, 0, 5, 0, 11, 0, 7, 0, 11, 0, 4, 0, 7, 0, 14, 0, 15, 0, 11, 0, 11, 0, 15, 0, 12, 0, 21, 0, 51, 0, 30, 0, 30, 0, 51, 0, 50, 0, 51, 0, 52, 0, 50, 0, 21, 0, 59, 0, 51, 0, 51, 0, 59, 0, 60, 0, 27, 0, 21, 0, 30, 0, 21, 0, 27, 0, 23, 0, 27, 0, 20, 0, 23, 0, 30, 0, 31, 0, 27, 0, 27, 0, 31, 0, 28, 0, 11, 0, 46, 0, 37, 0, 11, 0, 10, 0, 46, 0, 11, 0, 12, 0, 10, 0, 3, 0, 11, 0, 37, 0, 11, 0, 3, 0, 4, 0, 43, 0, 37, 0, 46, 0, 37, 0, 43, 0, 39, 0, 43, 0, 36, 0, 39, 0, 46, 0, 47, 0, 43, 0, 43, 0, 47, 0, 44, 0, 27, 0, 19, 0, 20, 0, 27, 0, 28, 0, 26, 0, 35, 0, 27, 0, 26, 0, 43, 0, 19, 0, 27, 0, 35, 0, 43, 0, 27, 0, 43, 0, 35, 0, 36, 0, 43, 0, 42, 0, 19, 0, 43, 0, 44, 0, 42, 0)],
"name": "Material.001",
"primitive": 3,
"uv_scale": Vector4(0, 0, 0, 0),
"vertex_count": 64,
"vertex_data": PackedByteArray(22, 255, 169, 244, 107, 7, 0, 0, 147, 248, 169, 244, 232, 0, 0, 0, 31, 254, 169, 244, 57, 4, 0, 0, 255, 255, 255, 255, 99, 3, 0, 0, 10, 255, 121, 255, 14, 2, 0, 0, 155, 252, 255, 255, 0, 0, 0, 0, 197, 251, 169, 244, 223, 1, 0, 0, 240, 253, 121, 255, 244, 0, 0, 0, 22, 255, 85, 11, 107, 7, 0, 0, 147, 248, 85, 11, 232, 0, 0, 0, 255, 255, 0, 0, 99, 3, 0, 0, 31, 254, 85, 11, 57, 4, 0, 0, 10, 255, 133, 0, 14, 2, 0, 0, 197, 251, 85, 11, 223, 1, 0, 0, 155, 252, 0, 0, 0, 0, 0, 0, 240, 253, 133, 0, 244, 0, 0, 0, 107, 7, 85, 11, 22, 255, 0, 0, 232, 0, 85, 11, 147, 248, 0, 0, 57, 4, 85, 11, 31, 254, 0, 0, 99, 3, 0, 0, 255, 255, 0, 0, 14, 2, 133, 0, 10, 255, 0, 0, 0, 0, 0, 0, 155, 252, 0, 0, 223, 1, 85, 11, 197, 251, 0, 0, 244, 0, 133, 0, 240, 253, 0, 0, 107, 7, 169, 244, 22, 255, 0, 0, 232, 0, 169, 244, 147, 248, 0, 0, 99, 3, 255, 255, 255, 255, 0, 0, 57, 4, 169, 244, 31, 254, 0, 0, 14, 2, 121, 255, 10, 255, 0, 0, 223, 1, 169, 244, 197, 251, 0, 0, 0, 0, 255, 255, 155, 252, 0, 0, 244, 0, 121, 255, 240, 253, 0, 0, 147, 248, 169, 244, 22, 255, 0, 0, 22, 255, 169, 244, 147, 248, 0, 0, 197, 251, 169, 244, 31, 254, 0, 0, 155, 252, 255, 255, 255, 255, 0, 0, 240, 253, 121, 255, 10, 255, 0, 0, 255, 255, 255, 255, 155, 252, 0, 0, 31, 254, 169, 244, 197, 251, 0, 0, 10, 255, 121, 255, 240, 253, 0, 0, 147, 248, 85, 11, 22, 255, 0, 0, 22, 255, 85, 11, 147, 248, 0, 0, 155, 252, 0, 0, 255, 255, 0, 0, 197, 251, 85, 11, 31, 254, 0, 0, 240, 253, 133, 0, 10, 255, 0, 0, 31, 254, 85, 11, 197, 251, 0, 0, 255, 255, 0, 0, 155, 252, 0, 0, 10, 255, 133, 0, 240, 253, 0, 0, 232, 0, 169, 244, 107, 7, 0, 0, 107, 7, 169, 244, 232, 0, 0, 0, 0, 0, 255, 255, 99, 3, 0, 0, 223, 1, 169, 244, 57, 4, 0, 0, 244, 0, 121, 255, 14, 2, 0, 0, 57, 4, 169, 244, 223, 1, 0, 0, 99, 3, 255, 255, 0, 0, 0, 0, 14, 2, 121, 255, 244, 0, 0, 0, 232, 0, 85, 11, 107, 7, 0, 0, 107, 7, 85, 11, 232, 0, 0, 0, 223, 1, 85, 11, 57, 4, 0, 0, 0, 0, 0, 0, 99, 3, 0, 0, 244, 0, 133, 0, 14, 2, 0, 0, 99, 3, 0, 0, 0, 0, 0, 0, 57, 4, 85, 11, 223, 1, 0, 0, 14, 2, 133, 0, 244, 0, 0, 0)
}]
blend_shape_mode = 0

[sub_resource type="ArrayMesh" id="ArrayMesh_kcpvt"]
resource_name = "Cubo_Cube_004"
_surfaces = [{
"aabb": AABB(-1, -1, -1, 2.00001, 2, 2),
"attribute_data": PackedByteArray(146, 206, 199, 174, 146, 206, 140, 166, 55, 81, 199, 174, 146, 206, 250, 173, 210, 82, 199, 174, 247, 204, 199, 174, 210, 82, 3, 174, 247, 204, 3, 174, 55, 81, 44, 173, 247, 204, 140, 166, 146, 206, 39, 168, 146, 206, 44, 173, 251, 81, 44, 173, 247, 204, 80, 167, 247, 204, 44, 173, 4, 82, 199, 174, 55, 81, 250, 173, 251, 81, 3, 174, 114, 89, 199, 174, 172, 27, 55, 81, 119, 59, 29, 4, 114, 89, 250, 173, 165, 88, 199, 174, 174, 88, 3, 174, 172, 27, 4, 82, 71, 29, 55, 81, 114, 89, 44, 173, 71, 29, 251, 81, 174, 88, 44, 173, 18, 61, 29, 4, 215, 87, 199, 174, 172, 27, 210, 82, 119, 59, 130, 2, 71, 29, 210, 82, 18, 61, 89, 3, 215, 87, 3, 174, 199, 174, 199, 174, 146, 206, 225, 251, 55, 81, 225, 251, 199, 174, 250, 173, 55, 81, 124, 253, 44, 173, 199, 174, 251, 81, 124, 253, 44, 173, 3, 174, 210, 82, 225, 251, 247, 204, 225, 251, 199, 174, 44, 173, 146, 206, 124, 253, 210, 82, 165, 252, 44, 173, 44, 173, 247, 204, 165, 252, 55, 81, 174, 252, 4, 82, 225, 251, 251, 81, 165, 252, 119, 59, 55, 81, 12, 123, 29, 4, 114, 89, 225, 251, 119, 59, 4, 82, 18, 61, 55, 81, 215, 87, 225, 251, 18, 61, 251, 81, 215, 87, 165, 252, 114, 89, 124, 253, 167, 124, 29, 4, 119, 59, 210, 82, 12, 123, 130, 2, 18, 61, 210, 82, 174, 88, 124, 253, 167, 124, 89, 3, 165, 88, 225, 251, 114, 89, 174, 252, 174, 88, 165, 252, 199, 174, 140, 166, 29, 4, 199, 174, 146, 206, 114, 89, 130, 2, 199, 174, 44, 173, 140, 166, 199, 174, 89, 167, 130, 2, 3, 174, 44, 173, 80, 167, 29, 4, 250, 173, 80, 3, 199, 174, 89, 3, 3, 174, 199, 174, 39, 168, 146, 206, 215, 87, 29, 4, 44, 173, 247, 204, 114, 89, 89, 3, 44, 173, 44, 173, 39, 168, 247, 204, 174, 88, 66, 91, 55, 81, 172, 27, 29, 4, 140, 166, 199, 174, 172, 27, 130, 2, 66, 91, 210, 82, 221, 92, 55, 81, 39, 168, 199, 174, 71, 29, 130, 2, 221, 92, 251, 81, 39, 168, 3, 174, 71, 29, 29, 4, 140, 166, 44, 173, 172, 27, 80, 3, 71, 29, 89, 3, 80, 167, 44, 173, 89, 167, 199, 174, 140, 166, 250, 173, 80, 167, 3, 174, 199, 174, 114, 89, 199, 174, 225, 251, 29, 4, 225, 251, 199, 174, 165, 88, 130, 2, 225, 251, 44, 173, 114, 89, 130, 2, 165, 252, 44, 173, 174, 88, 29, 4, 124, 253, 44, 173, 225, 251, 199, 174, 124, 253, 199, 174, 215, 87, 89, 3, 124, 253, 44, 173, 165, 252, 44, 173, 215, 87, 80, 3, 225, 251, 29, 4, 174, 252, 89, 3, 165, 252, 66, 91, 29, 4, 140, 166, 225, 251, 12, 123, 55, 81, 221, 92, 29, 4, 39, 168, 225, 251, 66, 91, 80, 3, 221, 92, 89, 3, 39, 168, 165, 252, 140, 166, 174, 252, 89, 167, 225, 251, 80, 167, 165, 252, 66, 91, 130, 2, 12, 123, 210, 82, 167, 124, 55, 81, 140, 166, 124, 253, 221, 92, 130, 2, 167, 124, 251, 81, 80, 167, 124, 253, 33, 230, 199, 174, 93, 89, 93, 89, 93, 89, 93, 89, 33, 230, 140, 166, 23, 231, 193, 174, 9, 230, 254, 173, 247, 230, 0, 174, 100, 89, 215, 87, 188, 231, 154, 166, 215, 87, 60, 89, 215, 87, 100, 89, 188, 231, 185, 174, 215, 87, 145, 88, 188, 231, 39, 168, 188, 231, 251, 173, 9, 230, 39, 168, 9, 230, 44, 173, 23, 231, 146, 166, 247, 230, 39, 168, 247, 230, 44, 173, 232, 35, 29, 4, 29, 4, 55, 81, 76, 81, 93, 89, 53, 4, 210, 82, 0, 36, 130, 2, 77, 34, 23, 4, 210, 82, 108, 89, 72, 3, 210, 82, 18, 35, 130, 2, 13, 83, 215, 87, 39, 3, 61, 81, 53, 4, 0, 82, 72, 3, 254, 81, 27, 82, 100, 89, 130, 2, 69, 81, 69, 81, 215, 87, 109, 81, 215, 87, 130, 2, 3, 82, 24, 82, 215, 87, 126, 99, 55, 81, 8, 4, 161, 166, 8, 4, 161, 166, 179, 67, 29, 4, 238, 3, 39, 168, 23, 4, 39, 168, 226, 97, 61, 81, 203, 67, 130, 2, 149, 99, 210, 82, 65, 3, 39, 168, 24, 66, 130, 2, 226, 97, 254, 81, 57, 3, 154, 166, 242, 3, 103, 167, 15, 4, 112, 167, 43, 3, 88, 167, 203, 67, 84, 3, 130, 2, 146, 166, 24, 66, 23, 4, 130, 2, 83, 167, 24, 66, 86, 3, 86, 198, 225, 251, 86, 198, 114, 89, 161, 166, 161, 166, 161, 166, 161, 166, 62, 198, 124, 253, 62, 198, 215, 87, 77, 199, 231, 251, 44, 199, 124, 253, 44, 199, 215, 87, 77, 199, 108, 89, 62, 198, 169, 88, 44, 199, 171, 88, 154, 166, 39, 168, 241, 199, 239, 251, 39, 168, 154, 166, 39, 168, 194, 166, 241, 199, 100, 89, 39, 168, 109, 167, 241, 199, 124, 253, 241, 199, 166, 88, 86, 198, 199, 174, 93, 89, 161, 166, 93, 89, 161, 166, 33, 230, 225, 251, 77, 199, 193, 174, 62, 198, 254, 173, 44, 199, 0, 174, 215, 87, 154, 166, 188, 231, 239, 251, 60, 89, 39, 168, 100, 89, 39, 168, 241, 199, 185, 174, 145, 88, 39, 168, 241, 199, 251, 173, 188, 231, 124, 253, 62, 198, 44, 173, 9, 230, 124, 253, 23, 231, 231, 251, 44, 199, 44, 173, 247, 230, 124, 253, 126, 99, 29, 4, 232, 35, 55, 81, 76, 81, 161, 166, 76, 81, 161, 166, 0, 36, 210, 82, 149, 99, 130, 2, 61, 81, 39, 168, 226, 97, 23, 4, 77, 34, 210, 82, 254, 81, 39, 168, 226, 97, 86, 3, 77, 34, 61, 81, 210, 82, 146, 166, 210, 82, 187, 166, 0, 36, 0, 82, 77, 34, 254, 81, 210, 82, 104, 167, 69, 81, 112, 167, 18, 82, 183, 166, 27, 82, 154, 166, 3, 82, 126, 167, 86, 198, 140, 166, 33, 230, 114, 89, 161, 166, 93, 89, 161, 166, 93, 89, 62, 198, 85, 167, 77, 199, 146, 166, 44, 199, 83, 167, 23, 231, 108, 89, 62, 198, 39, 168, 9, 230, 215, 87, 44, 199, 39, 168, 247, 230, 215, 87, 39, 168, 100, 89, 241, 199, 154, 166, 154, 166, 215, 87, 194, 166, 215, 87, 188, 231, 100, 89, 39, 168, 166, 88, 241, 199, 88, 167, 188, 231, 215, 87, 179, 67, 55, 81, 8, 4, 93, 89, 29, 4, 29, 4, 130, 2, 108, 89, 130, 2, 67, 89, 24, 66, 61, 81, 53, 4, 130, 2, 203, 67, 210, 82, 130, 2, 156, 87, 72, 3, 130, 2, 221, 66, 210, 82, 130, 2, 15, 4, 15, 4, 215, 87, 57, 3, 100, 89, 66, 3, 71, 89, 130, 2, 81, 3, 81, 3, 215, 87, 53, 4, 84, 3, 39, 3, 23, 4, 72, 3, 86, 3, 34, 95, 34, 95, 34, 95, 34, 95, 168, 96, 69, 97, 171, 96, 38, 97, 231, 96, 240, 96, 53, 97, 168, 96, 69, 97, 168, 96, 240, 96, 231, 96, 38, 97, 171, 96, 242, 95, 32, 96, 32, 96, 242, 95, 44, 96, 224, 95, 106, 96, 133, 96, 133, 96, 106, 96, 135, 75, 34, 95, 1, 74, 53, 97, 1, 74, 69, 97, 1, 74, 233, 96, 137, 74, 242, 95, 183, 74, 32, 96, 201, 74, 44, 96, 63, 74, 133, 96, 100, 73, 168, 96, 185, 73, 168, 96, 205, 9, 220, 160, 205, 9, 220, 160, 240, 11, 86, 159, 155, 11, 23, 159, 209, 11, 83, 159, 83, 11, 185, 158, 83, 11, 201, 158, 86, 11, 216, 158, 146, 11, 14, 159, 203, 10, 12, 160, 139, 10, 210, 159, 157, 10, 222, 159, 21, 11, 121, 159, 48, 11, 148, 159, 220, 160, 220, 160, 220, 160, 220, 160, 185, 158, 86, 159, 201, 158, 86, 159, 21, 159, 86, 159, 12, 160, 222, 159, 210, 159, 30, 160, 222, 159, 12, 160, 121, 159, 148, 159, 86, 159, 185, 158, 86, 159, 14, 159, 34, 95, 220, 160, 34, 95, 220, 160, 69, 97, 86, 159, 240, 96, 86, 159, 168, 96, 185, 158, 168, 96, 201, 158, 168, 96, 21, 159, 32, 96, 12, 160, 224, 95, 210, 159, 242, 95, 222, 159, 106, 96, 121, 159, 135, 75, 220, 160, 135, 75, 220, 160, 100, 73, 86, 159, 116, 73, 86, 159, 131, 73, 83, 159, 185, 73, 23, 159, 183, 74, 222, 159, 125, 74, 30, 160, 137, 74, 12, 160, 36, 74, 148, 159, 63, 74, 121, 159, 1, 74, 185, 158, 194, 73, 14, 159, 254, 73, 216, 158, 220, 160, 34, 95, 220, 160, 34, 95, 86, 159, 53, 97, 86, 159, 69, 97, 23, 159, 240, 96, 83, 159, 38, 97, 222, 159, 242, 95, 12, 160, 32, 96, 30, 160, 44, 96, 121, 159, 106, 96, 148, 159, 133, 96, 185, 158, 168, 96, 216, 158, 171, 96, 14, 159, 231, 96, 205, 9, 34, 95, 83, 11, 69, 97, 83, 11, 240, 96, 224, 11, 168, 96, 240, 11, 168, 96, 148, 11, 168, 96, 157, 10, 32, 96, 203, 10, 242, 95, 215, 10, 224, 95, 48, 11, 106, 96, 247, 204, 199, 174, 247, 204, 140, 166, 251, 81, 44, 173, 247, 204, 44, 173, 172, 27, 210, 82, 119, 59, 130, 2, 71, 29, 210, 82, 18, 61, 89, 3, 215, 87, 3, 174, 44, 173, 199, 174, 210, 82, 165, 252, 210, 82, 165, 252, 44, 173, 44, 173, 247, 204, 165, 252, 18, 61, 55, 81, 119, 59, 210, 82, 174, 88, 124, 253, 130, 2, 3, 174, 44, 173, 80, 167, 199, 174, 39, 168, 146, 206, 215, 87, 89, 3, 44, 173, 247, 204, 174, 88, 71, 29, 130, 2, 221, 92, 251, 81, 39, 168, 3, 174, 71, 29, 89, 3, 80, 167, 44, 173, 89, 3, 124, 253, 44, 173, 165, 252, 44, 173, 215, 87, 221, 92, 89, 3, 39, 168, 165, 252, 39, 168, 165, 252, 66, 91, 130, 2, 12, 123, 210, 82, 167, 124, 251, 81, 80, 167, 124, 253, 188, 231, 185, 174, 9, 230, 39, 168, 9, 230, 44, 173, 77, 34, 23, 4, 72, 3, 210, 82, 130, 2, 69, 81, 226, 97, 61, 81, 24, 66, 130, 2, 130, 2, 146, 166, 24, 66, 23, 4, 62, 198, 124, 253, 62, 198, 215, 87, 241, 199, 100, 89, 241, 199, 185, 174, 62, 198, 44, 173, 9, 230, 124, 253, 61, 81, 39, 168, 226, 97, 23, 4, 77, 34, 61, 81, 77, 34, 254, 81, 18, 82, 183, 166, 241, 199, 154, 166, 188, 231, 100, 89, 241, 199, 88, 167, 188, 231, 215, 87, 130, 2, 67, 89, 53, 4, 130, 2, 203, 67, 210, 82, 130, 2, 15, 4, 15, 4, 215, 87),
"format": 34896613399,
"index_count": 1428,
"index_data": PackedByteArray(10, 1, 1, 0, 74, 0, 10, 1, 147, 0, 1, 0, 55, 0, 183, 0, 244, 0, 55, 0, 128, 0, 183, 0, 126, 0, 29, 1, 186, 0, 126, 0, 90, 0, 29, 1, 224, 0, 109, 0, 36, 0, 224, 0, 204, 0, 109, 0, 2, 0, 110, 0, 73, 0, 2, 0, 38, 0, 110, 0, 91, 0, 165, 0, 31, 1, 91, 0, 19, 0, 165, 0, 20, 0, 245, 0, 164, 0, 20, 0, 54, 0, 245, 0, 184, 0, 110, 1, 247, 0, 184, 0, 73, 1, 110, 1, 92, 0, 56, 0, 18, 0, 92, 0, 127, 0, 56, 0, 207, 0, 123, 1, 12, 1, 207, 0, 88, 1, 123, 1, 145, 0, 98, 1, 225, 0, 145, 0, 50, 1, 98, 1, 166, 0, 137, 1, 30, 1, 166, 0, 63, 1, 137, 1, 205, 0, 72, 0, 108, 0, 205, 0, 9, 1, 72, 0, 11, 1, 49, 1, 146, 0, 11, 1, 124, 1, 49, 1, 30, 1, 74, 1, 185, 0, 30, 1, 137, 1, 74, 1, 246, 0, 63, 1, 166, 0, 246, 0, 109, 1, 63, 1, 226, 0, 87, 1, 206, 0, 226, 0, 99, 1, 87, 1, 0, 0, 7, 0, 3, 0, 0, 0, 5, 0, 7, 0, 3, 0, 14, 0, 11, 0, 3, 0, 7, 0, 14, 0, 1, 0, 13, 0, 9, 0, 1, 0, 10, 0, 13, 0, 8, 0, 17, 0, 16, 0, 8, 0, 12, 0, 17, 0, 2, 0, 17, 0, 15, 0, 2, 0, 16, 0, 17, 0, 15, 0, 6, 0, 4, 0, 15, 0, 17, 0, 6, 0, 6, 0, 17, 0, 12, 0, 18, 0, 23, 0, 21, 0, 18, 0, 22, 0, 23, 0, 21, 0, 28, 0, 26, 0, 21, 0, 23, 0, 28, 0, 19, 0, 27, 0, 24, 0, 19, 0, 25, 0, 27, 0, 24, 0, 33, 0, 31, 0, 24, 0, 27, 0, 33, 0, 20, 0, 34, 0, 29, 0, 20, 0, 32, 0, 34, 0, 30, 0, 23, 0, 22, 0, 30, 0, 35, 0, 23, 0, 23, 0, 35, 0, 28, 0, 36, 0, 43, 0, 39, 0, 36, 0, 41, 0, 43, 0, 39, 0, 49, 0, 46, 0, 39, 0, 43, 0, 49, 0, 37, 0, 50, 0, 45, 0, 37, 0, 47, 0, 50, 0, 44, 0, 53, 0, 52, 0, 44, 0, 48, 0, 53, 0, 38, 0, 53, 0, 51, 0, 38, 0, 52, 0, 53, 0, 51, 0, 42, 0, 40, 0, 51, 0, 53, 0, 42, 0, 42, 0, 53, 0, 48, 0, 54, 0, 60, 0, 57, 0, 54, 0, 58, 0, 60, 0, 57, 0, 66, 0, 64, 0, 57, 0, 60, 0, 66, 0, 55, 0, 68, 0, 63, 0, 55, 0, 65, 0, 68, 0, 62, 0, 71, 0, 70, 0, 62, 0, 67, 0, 71, 0, 56, 0, 71, 0, 69, 0, 56, 0, 70, 0, 71, 0, 69, 0, 61, 0, 59, 0, 69, 0, 71, 0, 61, 0, 61, 0, 71, 0, 67, 0, 72, 0, 79, 0, 76, 0, 72, 0, 77, 0, 79, 0, 75, 0, 82, 0, 81, 0, 75, 0, 78, 0, 82, 0, 73, 0, 82, 0, 80, 0, 73, 0, 81, 0, 82, 0, 80, 0, 87, 0, 85, 0, 80, 0, 82, 0, 87, 0, 74, 0, 89, 0, 84, 0, 74, 0, 86, 0, 89, 0, 83, 0, 79, 0, 77, 0, 83, 0, 88, 0, 79, 0, 78, 0, 87, 0, 82, 0, 90, 0, 98, 0, 94, 0, 90, 0, 95, 0, 98, 0, 93, 0, 103, 0, 102, 0, 93, 0, 97, 0, 103, 0, 91, 0, 103, 0, 100, 0, 91, 0, 102, 0, 103, 0, 101, 0, 107, 0, 106, 0, 101, 0, 104, 0, 107, 0, 92, 0, 107, 0, 105, 0, 92, 0, 106, 0, 107, 0, 105, 0, 99, 0, 96, 0, 105, 0, 107, 0, 99, 0, 99, 0, 107, 0, 104, 0, 108, 0, 115, 0, 111, 0, 108, 0, 113, 0, 115, 0, 111, 0, 122, 0, 119, 0, 111, 0, 115, 0, 122, 0, 109, 0, 121, 0, 117, 0, 109, 0, 118, 0, 121, 0, 116, 0, 125, 0, 124, 0, 116, 0, 120, 0, 125, 0, 110, 0, 125, 0, 123, 0, 110, 0, 124, 0, 125, 0, 123, 0, 114, 0, 112, 0, 123, 0, 125, 0, 114, 0, 114, 0, 125, 0, 120, 0, 126, 0, 132, 0, 129, 0, 126, 0, 131, 0, 132, 0, 130, 0, 136, 0, 135, 0, 130, 0, 133, 0, 136, 0, 127, 0, 136, 0, 134, 0, 127, 0, 135, 0, 136, 0, 134, 0, 143, 0, 140, 0, 134, 0, 136, 0, 143, 0, 128, 0, 142, 0, 138, 0, 128, 0, 139, 0, 142, 0, 137, 0, 132, 0, 131, 0, 137, 0, 141, 0, 132, 0, 133, 0, 143, 0, 136, 0, 144, 0, 150, 0, 148, 0, 144, 0, 149, 0, 150, 0, 148, 0, 158, 0, 155, 0, 148, 0, 150, 0, 158, 0, 146, 0, 156, 0, 151, 0, 146, 0, 153, 0, 156, 0, 152, 0, 162, 0, 161, 0, 152, 0, 157, 0, 162, 0, 147, 0, 162, 0, 159, 0, 147, 0, 161, 0, 162, 0, 160, 0, 150, 0, 149, 0, 160, 0, 163, 0, 150, 0, 150, 0, 163, 0, 158, 0, 164, 0, 172, 0, 168, 0, 164, 0, 169, 0, 172, 0, 167, 0, 176, 0, 175, 0, 167, 0, 171, 0, 176, 0, 165, 0, 176, 0, 174, 0, 165, 0, 175, 0, 176, 0, 174, 0, 181, 0, 178, 0, 174, 0, 176, 0, 181, 0, 166, 0, 182, 0, 177, 0, 166, 0, 180, 0, 182, 0, 177, 0, 173, 0, 170, 0, 177, 0, 182, 0, 173, 0, 171, 0, 181, 0, 176, 0, 183, 0, 194, 0, 189, 0, 183, 0, 191, 0, 194, 0, 187, 0, 198, 0, 196, 0, 187, 0, 192, 0, 198, 0, 185, 0, 198, 0, 195, 0, 185, 0, 196, 0, 198, 0, 195, 0, 202, 0, 200, 0, 195, 0, 198, 0, 202, 0, 186, 0, 203, 0, 199, 0, 186, 0, 201, 0, 203, 0, 199, 0, 193, 0, 190, 0, 199, 0, 203, 0, 193, 0, 192, 0, 202, 0, 198, 0, 204, 0, 211, 0, 208, 0, 204, 0, 210, 0, 211, 0, 209, 0, 215, 0, 214, 0, 209, 0, 212, 0, 215, 0, 205, 0, 215, 0, 213, 0, 205, 0, 214, 0, 215, 0, 213, 0, 223, 0, 220, 0, 213, 0, 215, 0, 223, 0, 206, 0, 221, 0, 216, 0, 206, 0, 219, 0, 221, 0, 217, 0, 211, 0, 210, 0, 217, 0, 222, 0, 211, 0, 212, 0, 223, 0, 215, 0, 224, 0, 230, 0, 228, 0, 224, 0, 229, 0, 230, 0, 228, 0, 237, 0, 235, 0, 228, 0, 230, 0, 237, 0, 225, 0, 236, 0, 231, 0, 225, 0, 233, 0, 236, 0, 232, 0, 243, 0, 241, 0, 232, 0, 238, 0, 243, 0, 227, 0, 243, 0, 240, 0, 227, 0, 241, 0, 243, 0, 239, 0, 230, 0, 229, 0, 239, 0, 242, 0, 230, 0, 230, 0, 242, 0, 237, 0, 244, 0, 254, 0, 249, 0, 244, 0, 251, 0, 254, 0, 248, 0, 3, 1, 2, 1, 248, 0, 252, 0, 3, 1, 245, 0, 3, 1, 255, 0, 245, 0, 2, 1, 3, 1, 1, 1, 8, 1, 6, 1, 1, 1, 4, 1, 8, 1, 247, 0, 8, 1, 5, 1, 247, 0, 6, 1, 8, 1, 5, 1, 253, 0, 250, 0, 5, 1, 8, 1, 253, 0, 253, 0, 8, 1, 4, 1, 9, 1, 15, 1, 13, 1, 9, 1, 14, 1, 15, 1, 13, 1, 19, 1, 17, 1, 13, 1, 15, 1, 19, 1, 10, 1, 20, 1, 16, 1, 10, 1, 18, 1, 20, 1, 16, 1, 28, 1, 25, 1, 16, 1, 20, 1, 28, 1, 12, 1, 26, 1, 21, 1, 12, 1, 24, 1, 26, 1, 22, 1, 15, 1, 14, 1, 22, 1, 27, 1, 15, 1, 15, 1, 27, 1, 19, 1, 29, 1, 39, 1, 34, 1, 29, 1, 36, 1, 39, 1, 33, 1, 45, 1, 43, 1, 33, 1, 37, 1, 45, 1, 30, 1, 45, 1, 41, 1, 30, 1, 43, 1, 45, 1, 40, 1, 48, 1, 47, 1, 40, 1, 44, 1, 48, 1, 31, 1, 48, 1, 46, 1, 31, 1, 47, 1, 48, 1, 46, 1, 38, 1, 35, 1, 46, 1, 48, 1, 38, 1, 38, 1, 48, 1, 44, 1, 54, 1, 62, 1, 60, 1, 54, 1, 57, 1, 62, 1, 50, 1, 62, 1, 58, 1, 50, 1, 60, 1, 62, 1, 58, 1, 53, 1, 51, 1, 58, 1, 62, 1, 53, 1, 52, 1, 61, 1, 56, 1, 64, 1, 70, 1, 69, 1, 64, 1, 66, 1, 70, 1, 63, 1, 70, 1, 67, 1, 63, 1, 69, 1, 70, 1, 67, 1, 72, 1, 71, 1, 67, 1, 70, 1, 72, 1, 66, 1, 72, 1, 70, 1, 79, 1, 85, 1, 83, 1, 79, 1, 80, 1, 85, 1, 73, 1, 85, 1, 82, 1, 73, 1, 83, 1, 85, 1, 82, 1, 76, 1, 75, 1, 82, 1, 85, 1, 76, 1, 77, 1, 86, 1, 81, 1, 90, 1, 95, 1, 93, 1, 90, 1, 91, 1, 95, 1, 88, 1, 95, 1, 92, 1, 88, 1, 93, 1, 95, 1, 92, 1, 97, 1, 96, 1, 92, 1, 95, 1, 97, 1, 91, 1, 97, 1, 95, 1, 103, 1, 108, 1, 106, 1, 103, 1, 104, 1, 108, 1, 99, 1, 108, 1, 105, 1, 99, 1, 106, 1, 108, 1, 105, 1, 101, 1, 100, 1, 105, 1, 108, 1, 101, 1, 101, 1, 108, 1, 104, 1, 112, 1, 118, 1, 116, 1, 112, 1, 113, 1, 118, 1, 109, 1, 118, 1, 115, 1, 109, 1, 116, 1, 118, 1, 115, 1, 121, 1, 120, 1, 115, 1, 118, 1, 121, 1, 114, 1, 122, 1, 119, 1, 125, 1, 133, 1, 131, 1, 125, 1, 128, 1, 133, 1, 124, 1, 133, 1, 129, 1, 124, 1, 131, 1, 133, 1, 129, 1, 136, 1, 134, 1, 129, 1, 133, 1, 136, 1, 127, 1, 135, 1, 132, 1, 140, 1, 146, 1, 145, 1, 140, 1, 142, 1, 146, 1, 137, 1, 146, 1, 143, 1, 137, 1, 145, 1, 146, 1, 143, 1, 139, 1, 138, 1, 143, 1, 146, 1, 139, 1, 139, 1, 146, 1, 142, 1, 92, 0, 135, 0, 127, 0, 92, 0, 105, 0, 135, 0, 105, 0, 130, 0, 135, 0, 105, 0, 96, 0, 130, 0, 95, 0, 126, 0, 129, 0, 95, 0, 90, 0, 126, 0, 18, 0, 106, 0, 92, 0, 18, 0, 21, 0, 106, 0, 21, 0, 101, 0, 106, 0, 21, 0, 26, 0, 101, 0, 25, 0, 91, 0, 100, 0, 25, 0, 19, 0, 91, 0, 164, 0, 32, 0, 20, 0, 164, 0, 168, 0, 32, 0, 167, 0, 24, 0, 31, 0, 167, 0, 175, 0, 24, 0, 175, 0, 19, 0, 24, 0, 175, 0, 165, 0, 19, 0, 204, 0, 118, 0, 109, 0, 204, 0, 208, 0, 118, 0, 209, 0, 111, 0, 119, 0, 209, 0, 214, 0, 111, 0, 214, 0, 108, 0, 111, 0, 214, 0, 205, 0, 108, 0, 244, 0, 65, 0, 55, 0, 244, 0, 249, 0, 65, 0, 248, 0, 57, 0, 64, 0, 248, 0, 2, 1, 57, 0, 2, 1, 54, 0, 57, 0, 2, 1, 245, 0, 54, 0, 31, 1, 102, 0, 91, 0, 31, 1, 46, 1, 102, 0, 46, 1, 93, 0, 102, 0, 46, 1, 35, 1, 93, 0, 36, 1, 90, 0, 94, 0, 36, 1, 29, 1, 90, 0, 38, 0, 124, 0, 110, 0, 38, 0, 51, 0, 124, 0, 51, 0, 116, 0, 124, 0, 51, 0, 40, 0, 116, 0, 41, 0, 109, 0, 117, 0, 41, 0, 36, 0, 109, 0, 2, 0, 52, 0, 38, 0, 2, 0, 15, 0, 52, 0, 15, 0, 44, 0, 52, 0, 15, 0, 4, 0, 44, 0, 5, 0, 37, 0, 45, 0, 5, 0, 0, 0, 37, 0, 127, 0, 70, 0, 56, 0, 127, 0, 134, 0, 70, 0, 134, 0, 62, 0, 70, 0, 134, 0, 140, 0, 62, 0, 139, 0, 55, 0, 63, 0, 139, 0, 128, 0, 55, 0, 110, 0, 81, 0, 73, 0, 110, 0, 123, 0, 81, 0, 123, 0, 75, 0, 81, 0, 123, 0, 112, 0, 75, 0, 113, 0, 72, 0, 76, 0, 113, 0, 108, 0, 72, 0, 73, 0, 16, 0, 2, 0, 73, 0, 80, 0, 16, 0, 80, 0, 8, 0, 16, 0, 80, 0, 85, 0, 8, 0, 86, 0, 1, 0, 9, 0, 86, 0, 74, 0, 1, 0, 56, 0, 22, 0, 18, 0, 56, 0, 69, 0, 22, 0, 69, 0, 30, 0, 22, 0, 69, 0, 59, 0, 30, 0, 58, 0, 20, 0, 29, 0, 58, 0, 54, 0, 20, 0, 0, 0, 149, 0, 144, 0, 0, 0, 3, 0, 149, 0, 3, 0, 160, 0, 149, 0, 3, 0, 11, 0, 160, 0, 10, 0, 147, 0, 159, 0, 10, 0, 1, 0, 147, 0, 128, 0, 191, 0, 183, 0, 128, 0, 138, 0, 191, 0, 137, 0, 199, 0, 190, 0, 137, 0, 131, 0, 199, 0, 131, 0, 186, 0, 199, 0, 131, 0, 126, 0, 186, 0, 36, 0, 229, 0, 224, 0, 36, 0, 39, 0, 229, 0, 39, 0, 239, 0, 229, 0, 39, 0, 46, 0, 239, 0, 47, 0, 227, 0, 240, 0, 47, 0, 37, 0, 227, 0, 74, 0, 18, 1, 10, 1, 74, 0, 84, 0, 18, 1, 83, 0, 13, 1, 17, 1, 83, 0, 77, 0, 13, 1, 77, 0, 9, 1, 13, 1, 77, 0, 72, 0, 9, 1, 30, 1, 179, 0, 166, 0, 30, 1, 41, 1, 179, 0, 40, 1, 174, 0, 178, 0, 40, 1, 47, 1, 174, 0, 47, 1, 165, 0, 174, 0, 47, 1, 31, 1, 165, 0, 10, 1, 161, 0, 147, 0, 10, 1, 16, 1, 161, 0, 16, 1, 152, 0, 161, 0, 16, 1, 25, 1, 152, 0, 23, 1, 146, 0, 151, 0, 23, 1, 11, 1, 146, 0, 166, 0, 7, 1, 246, 0, 166, 0, 177, 0, 7, 1, 177, 0, 0, 1, 7, 1, 177, 0, 170, 0, 0, 1, 169, 0, 245, 0, 255, 0, 169, 0, 164, 0, 245, 0, 144, 0, 241, 0, 227, 0, 144, 0, 148, 0, 241, 0, 148, 0, 232, 0, 241, 0, 148, 0, 155, 0, 232, 0, 154, 0, 225, 0, 231, 0, 154, 0, 145, 0, 225, 0, 185, 0, 42, 1, 30, 1, 185, 0, 195, 0, 42, 1, 195, 0, 32, 1, 42, 1, 195, 0, 200, 0, 32, 1, 201, 0, 29, 1, 34, 1, 201, 0, 186, 0, 29, 1, 205, 0, 14, 1, 9, 1, 205, 0, 213, 0, 14, 1, 213, 0, 22, 1, 14, 1, 213, 0, 220, 0, 22, 1, 218, 0, 12, 1, 21, 1, 218, 0, 207, 0, 12, 1, 247, 0, 197, 0, 184, 0, 247, 0, 5, 1, 197, 0, 5, 1, 188, 0, 197, 0, 5, 1, 250, 0, 188, 0, 251, 0, 183, 0, 189, 0, 251, 0, 244, 0, 183, 0, 224, 0, 210, 0, 204, 0, 224, 0, 228, 0, 210, 0, 228, 0, 217, 0, 210, 0, 228, 0, 235, 0, 217, 0, 234, 0, 206, 0, 216, 0, 234, 0, 226, 0, 206, 0, 141, 1, 67, 1, 71, 1, 141, 1, 144, 1, 67, 1, 144, 1, 63, 1, 67, 1, 144, 1, 137, 1, 63, 1, 124, 1, 59, 1, 49, 1, 124, 1, 129, 1, 59, 1, 129, 1, 55, 1, 59, 1, 129, 1, 134, 1, 55, 1, 65, 1, 115, 1, 120, 1, 65, 1, 68, 1, 115, 1, 68, 1, 109, 1, 115, 1, 68, 1, 63, 1, 109, 1, 50, 1, 107, 1, 98, 1, 50, 1, 58, 1, 107, 1, 58, 1, 102, 1, 107, 1, 58, 1, 51, 1, 102, 1, 78, 1, 143, 1, 138, 1, 78, 1, 84, 1, 143, 1, 84, 1, 137, 1, 143, 1, 84, 1, 74, 1, 137, 1, 88, 1, 130, 1, 123, 1, 88, 1, 92, 1, 130, 1, 92, 1, 126, 1, 130, 1, 92, 1, 96, 1, 126, 1, 111, 1, 82, 1, 75, 1, 111, 1, 117, 1, 82, 1, 117, 1, 73, 1, 82, 1, 117, 1, 110, 1, 73, 1, 99, 1, 94, 1, 87, 1, 99, 1, 105, 1, 94, 1, 105, 1, 89, 1, 94, 1, 105, 1, 100, 1, 89, 1, 144, 0, 37, 0, 0, 0, 144, 0, 227, 0, 37, 0),
"lods": [0.187495, PackedByteArray(167, 1, 186, 1, 148, 1, 167, 1, 148, 1, 169, 1, 148, 1, 186, 1, 13, 0, 167, 1, 207, 1, 186, 1, 207, 1, 167, 1, 209, 1, 207, 1, 152, 0, 186, 1, 152, 0, 157, 0, 186, 1, 63, 0, 191, 1, 202, 1, 63, 0, 182, 1, 191, 1, 191, 1, 182, 1, 194, 0, 182, 1, 63, 0, 183, 1, 202, 1, 65, 0, 63, 0, 63, 0, 65, 0, 68, 0, 202, 1, 254, 0, 65, 0, 178, 1, 34, 1, 194, 1, 178, 1, 212, 1, 34, 1, 34, 1, 212, 1, 39, 1, 212, 1, 178, 1, 171, 1, 178, 1, 194, 1, 181, 1, 181, 1, 194, 1, 192, 1, 181, 1, 141, 0, 132, 0, 198, 1, 195, 1, 156, 1, 156, 1, 195, 1, 176, 1, 198, 1, 217, 0, 195, 1, 217, 0, 222, 0, 195, 1, 156, 1, 199, 1, 198, 1, 198, 1, 199, 1, 237, 0, 199, 1, 156, 1, 159, 1, 149, 1, 175, 1, 164, 1, 149, 1, 157, 1, 175, 1, 157, 1, 40, 0, 175, 1, 164, 1, 8, 0, 149, 1, 8, 0, 164, 1, 168, 1, 149, 1, 4, 0, 158, 1, 173, 1, 190, 1, 211, 1, 213, 1, 211, 1, 190, 1, 211, 1, 213, 1, 38, 1, 190, 1, 173, 1, 151, 1, 151, 1, 173, 1, 153, 1, 151, 1, 189, 1, 190, 1, 190, 1, 189, 1, 181, 0, 35, 1, 170, 1, 173, 1, 161, 1, 203, 1, 188, 1, 188, 1, 152, 1, 161, 1, 188, 1, 172, 0, 152, 1, 161, 1, 152, 1, 154, 1, 203, 1, 161, 1, 162, 1, 162, 1, 161, 1, 66, 0, 162, 1, 204, 1, 203, 1, 162, 1, 252, 0, 204, 1, 184, 0, 109, 1, 246, 0, 246, 0, 197, 0, 184, 0, 201, 1, 188, 0, 197, 0, 246, 0, 201, 1, 197, 0, 246, 0, 205, 1, 201, 1, 201, 1, 205, 1, 253, 0, 253, 0, 205, 1, 4, 1, 1, 1, 4, 1, 205, 1, 246, 0, 109, 1, 63, 1, 246, 0, 63, 1, 166, 0, 166, 0, 7, 1, 246, 0, 170, 0, 0, 1, 7, 1, 166, 0, 170, 0, 7, 1, 170, 0, 182, 0, 173, 0, 166, 0, 182, 0, 170, 0, 166, 0, 180, 0, 182, 0, 166, 0, 63, 1, 137, 1, 68, 1, 63, 1, 109, 1, 65, 1, 68, 1, 120, 1, 68, 1, 109, 1, 120, 1, 109, 1, 118, 1, 120, 1, 120, 1, 118, 1, 121, 1, 109, 1, 116, 1, 118, 1, 112, 1, 118, 1, 116, 1, 112, 1, 113, 1, 118, 1, 144, 1, 137, 1, 63, 1, 144, 1, 63, 1, 71, 1, 141, 1, 144, 1, 71, 1, 63, 1, 69, 1, 71, 1, 71, 1, 69, 1, 72, 1, 66, 1, 72, 1, 69, 1, 64, 1, 66, 1, 69, 1, 166, 0, 137, 1, 30, 1, 30, 1, 179, 0, 166, 0, 30, 1, 214, 1, 179, 0, 30, 1, 43, 1, 214, 1, 210, 1, 214, 1, 43, 1, 210, 1, 37, 1, 214, 1, 30, 1, 137, 1, 73, 1, 84, 1, 73, 1, 137, 1, 84, 1, 137, 1, 138, 1, 78, 1, 84, 1, 138, 1, 137, 1, 145, 1, 138, 1, 138, 1, 145, 1, 139, 1, 139, 1, 145, 1, 142, 1, 140, 1, 142, 1, 145, 1, 30, 1, 73, 1, 184, 0, 184, 0, 42, 1, 30, 1, 184, 0, 193, 1, 42, 1, 193, 1, 32, 1, 42, 1, 184, 0, 196, 0, 193, 1, 192, 0, 193, 1, 196, 0, 187, 0, 192, 0, 196, 0, 184, 0, 73, 1, 109, 1, 117, 1, 109, 1, 73, 1, 117, 1, 73, 1, 75, 1, 111, 1, 117, 1, 75, 1, 73, 1, 85, 1, 75, 1, 75, 1, 85, 1, 76, 1, 73, 1, 83, 1, 85, 1, 79, 1, 85, 1, 83, 1, 79, 1, 80, 1, 85, 1, 174, 1, 163, 1, 155, 1, 163, 1, 59, 0, 155, 1, 174, 1, 179, 1, 163, 1, 179, 1, 174, 1, 172, 1, 179, 1, 62, 0, 163, 1, 62, 0, 180, 1, 184, 1, 206, 0, 123, 1, 11, 1, 11, 1, 24, 1, 26, 1, 11, 1, 26, 1, 21, 1, 218, 0, 11, 1, 21, 1, 218, 0, 206, 0, 11, 1, 206, 0, 219, 0, 221, 0, 206, 0, 221, 0, 216, 0, 234, 0, 206, 0, 216, 0, 234, 0, 225, 0, 206, 0, 225, 0, 233, 0, 236, 0, 225, 0, 236, 0, 231, 0, 154, 0, 225, 0, 231, 0, 154, 0, 145, 0, 225, 0, 225, 0, 87, 1, 206, 0, 23, 1, 11, 1, 145, 0, 23, 1, 145, 0, 151, 0, 145, 0, 156, 0, 151, 0, 145, 0, 153, 0, 156, 0, 145, 0, 98, 1, 225, 0, 225, 0, 98, 1, 87, 1, 11, 1, 49, 1, 145, 0, 145, 0, 49, 1, 98, 1, 11, 1, 123, 1, 49, 1, 206, 0, 87, 1, 123, 1, 98, 1, 94, 1, 87, 1, 98, 1, 100, 1, 94, 1, 100, 1, 89, 1, 94, 1, 98, 1, 106, 1, 100, 1, 100, 1, 106, 1, 101, 1, 101, 1, 106, 1, 104, 1, 103, 1, 104, 1, 106, 1, 49, 1, 107, 1, 98, 1, 49, 1, 51, 1, 107, 1, 51, 1, 102, 1, 107, 1, 49, 1, 62, 1, 51, 1, 51, 1, 62, 1, 53, 1, 49, 1, 60, 1, 62, 1, 54, 1, 62, 1, 60, 1, 54, 1, 57, 1, 62, 1, 123, 1, 59, 1, 49, 1, 123, 1, 134, 1, 59, 1, 134, 1, 55, 1, 59, 1, 123, 1, 133, 1, 134, 1, 134, 1, 133, 1, 136, 1, 123, 1, 131, 1, 133, 1, 125, 1, 133, 1, 131, 1, 125, 1, 128, 1, 133, 1, 87, 1, 130, 1, 123, 1, 87, 1, 96, 1, 130, 1, 96, 1, 126, 1, 130, 1, 87, 1, 93, 1, 96, 1, 96, 1, 93, 1, 97, 1, 91, 1, 97, 1, 93, 1, 90, 1, 91, 1, 93, 1, 197, 1, 206, 1, 165, 1, 165, 1, 206, 1, 166, 1, 206, 1, 208, 1, 166, 1, 197, 1, 165, 1, 196, 1, 196, 1, 165, 1, 177, 1, 197, 1, 196, 1, 223, 0, 166, 1, 88, 0, 79, 0, 187, 1, 147, 1, 150, 1, 147, 1, 187, 1, 185, 1, 185, 1, 187, 1, 158, 0, 185, 1, 200, 1, 147, 1, 147, 1, 200, 1, 160, 1, 185, 1, 232, 0, 200, 1, 232, 0, 238, 0, 200, 1, 52, 1, 61, 1, 56, 1, 77, 1, 86, 1, 81, 1, 114, 1, 122, 1, 119, 1, 127, 1, 135, 1, 132, 1)],
"material": SubResource("StandardMaterial3D_gkfmg"),
"name": "Material",
"primitive": 3,
"uv_scale": Vector4(0, 0, 0, 0),
"vertex_count": 471,
"vertex_data": PackedByteArray(254, 255, 224, 250, 30, 5, 199, 213, 223, 250, 224, 250, 0, 0, 104, 248, 223, 250, 255, 255, 30, 5, 114, 197, 79, 255, 224, 250, 144, 2, 137, 223, 79, 255, 110, 253, 30, 5, 213, 206, 79, 255, 110, 253, 30, 5, 192, 205, 165, 254, 83, 253, 171, 2, 250, 218, 165, 254, 83, 253, 171, 2, 20, 216, 223, 250, 110, 253, 175, 0, 11, 235, 223, 250, 110, 253, 175, 0, 137, 237, 110, 253, 224, 250, 175, 0, 41, 236, 110, 253, 224, 250, 175, 0, 99, 237, 82, 253, 83, 253, 89, 1, 188, 232, 82, 253, 83, 253, 89, 1, 75, 228, 82, 253, 83, 253, 89, 1, 58, 228, 110, 253, 79, 255, 30, 5, 87, 199, 223, 250, 79, 255, 144, 2, 38, 213, 82, 253, 165, 254, 171, 2, 173, 212, 223, 250, 0, 0, 30, 5, 121, 252, 223, 250, 30, 5, 0, 0, 255, 255, 254, 255, 30, 5, 30, 5, 53, 218, 223, 250, 175, 0, 144, 2, 19, 252, 110, 253, 175, 0, 30, 5, 22, 242, 82, 253, 89, 1, 171, 2, 157, 244, 110, 253, 30, 5, 175, 0, 177, 244, 223, 250, 144, 2, 175, 0, 234, 244, 223, 250, 144, 2, 175, 0, 188, 250, 82, 253, 171, 2, 89, 1, 255, 255, 82, 253, 171, 2, 89, 1, 0, 241, 79, 255, 144, 2, 30, 5, 33, 229, 79, 255, 144, 2, 30, 5, 132, 227, 79, 255, 30, 5, 144, 2, 1, 229, 79, 255, 30, 5, 144, 2, 47, 225, 165, 254, 171, 2, 171, 2, 187, 240, 165, 254, 171, 2, 171, 2, 50, 232, 165, 254, 171, 2, 171, 2, 17, 232, 223, 250, 224, 250, 255, 255, 179, 192, 254, 255, 224, 250, 224, 250, 178, 205, 223, 250, 255, 255, 224, 250, 230, 186, 110, 253, 224, 250, 79, 255, 77, 194, 223, 250, 110, 253, 79, 255, 162, 149, 223, 250, 110, 253, 79, 255, 210, 194, 82, 253, 83, 253, 165, 254, 132, 160, 82, 253, 83, 253, 165, 254, 192, 196, 79, 255, 110, 253, 224, 250, 241, 197, 79, 255, 110, 253, 224, 250, 64, 199, 79, 255, 224, 250, 110, 253, 214, 198, 79, 255, 224, 250, 110, 253, 169, 191, 165, 254, 83, 253, 83, 253, 140, 185, 165, 254, 83, 253, 83, 253, 96, 197, 165, 254, 83, 253, 83, 253, 181, 185, 223, 250, 79, 255, 110, 253, 51, 171, 110, 253, 79, 255, 224, 250, 9, 190, 82, 253, 165, 254, 83, 253, 57, 177, 254, 255, 30, 5, 224, 250, 178, 213, 223, 250, 30, 5, 255, 255, 215, 189, 223, 250, 0, 0, 224, 250, 251, 251, 79, 255, 30, 5, 110, 253, 60, 205, 79, 255, 144, 2, 224, 250, 168, 223, 79, 255, 144, 2, 224, 250, 132, 225, 165, 254, 171, 2, 83, 253, 44, 216, 165, 254, 171, 2, 83, 253, 45, 224, 223, 250, 144, 2, 79, 255, 136, 255, 223, 250, 144, 2, 79, 255, 201, 194, 110, 253, 30, 5, 79, 255, 93, 194, 110, 253, 30, 5, 79, 255, 67, 185, 82, 253, 171, 2, 165, 254, 205, 203, 82, 253, 171, 2, 165, 254, 245, 239, 82, 253, 171, 2, 165, 254, 7, 188, 110, 253, 175, 0, 224, 250, 70, 240, 223, 250, 175, 0, 110, 253, 221, 252, 82, 253, 89, 1, 83, 253, 81, 238, 0, 0, 224, 250, 30, 5, 101, 219, 30, 5, 255, 255, 30, 5, 114, 197, 30, 5, 224, 250, 0, 0, 225, 255, 175, 0, 110, 253, 30, 5, 213, 206, 175, 0, 110, 253, 30, 5, 33, 229, 175, 0, 224, 250, 144, 2, 112, 229, 89, 1, 83, 253, 171, 2, 250, 218, 89, 1, 83, 253, 171, 2, 181, 236, 30, 5, 79, 255, 144, 2, 38, 213, 144, 2, 79, 255, 30, 5, 87, 199, 171, 2, 165, 254, 171, 2, 173, 212, 144, 2, 224, 250, 175, 0, 239, 244, 144, 2, 224, 250, 175, 0, 66, 247, 30, 5, 110, 253, 175, 0, 11, 235, 30, 5, 110, 253, 175, 0, 234, 244, 171, 2, 83, 253, 89, 1, 188, 232, 171, 2, 83, 253, 89, 1, 78, 253, 171, 2, 83, 253, 89, 1, 185, 252, 0, 0, 30, 5, 30, 5, 224, 214, 30, 5, 30, 5, 0, 0, 103, 248, 30, 5, 0, 0, 30, 5, 121, 252, 175, 0, 30, 5, 144, 2, 233, 223, 175, 0, 30, 5, 144, 2, 151, 227, 175, 0, 144, 2, 30, 5, 192, 205, 175, 0, 144, 2, 30, 5, 132, 227, 89, 1, 171, 2, 171, 2, 30, 214, 89, 1, 171, 2, 171, 2, 227, 218, 89, 1, 171, 2, 171, 2, 17, 232, 30, 5, 144, 2, 175, 0, 137, 237, 30, 5, 144, 2, 175, 0, 188, 250, 144, 2, 30, 5, 175, 0, 138, 237, 171, 2, 171, 2, 89, 1, 22, 228, 171, 2, 171, 2, 89, 1, 255, 240, 144, 2, 175, 0, 30, 5, 22, 242, 30, 5, 175, 0, 144, 2, 19, 252, 171, 2, 89, 1, 171, 2, 157, 244, 0, 0, 224, 250, 224, 250, 178, 213, 30, 5, 224, 250, 255, 255, 215, 189, 30, 5, 255, 255, 224, 250, 230, 186, 175, 0, 224, 250, 110, 253, 60, 205, 175, 0, 110, 253, 224, 250, 241, 197, 175, 0, 110, 253, 224, 250, 168, 223, 89, 1, 83, 253, 83, 253, 140, 185, 89, 1, 83, 253, 83, 253, 44, 216, 30, 5, 110, 253, 79, 255, 162, 149, 30, 5, 110, 253, 79, 255, 201, 194, 144, 2, 224, 250, 79, 255, 67, 185, 144, 2, 224, 250, 79, 255, 93, 194, 171, 2, 83, 253, 165, 254, 132, 160, 171, 2, 83, 253, 165, 254, 8, 188, 171, 2, 83, 253, 165, 254, 205, 203, 144, 2, 79, 255, 224, 250, 9, 190, 30, 5, 79, 255, 110, 253, 51, 171, 171, 2, 165, 254, 83, 253, 57, 177, 0, 0, 30, 5, 224, 250, 254, 206, 30, 5, 0, 0, 224, 250, 251, 251, 30, 5, 30, 5, 255, 255, 220, 194, 175, 0, 144, 2, 224, 250, 64, 199, 175, 0, 144, 2, 224, 250, 132, 225, 175, 0, 30, 5, 110, 253, 165, 199, 89, 1, 171, 2, 83, 253, 187, 191, 89, 1, 171, 2, 83, 253, 45, 224, 30, 5, 175, 0, 110, 253, 221, 252, 144, 2, 175, 0, 224, 250, 70, 240, 171, 2, 89, 1, 83, 253, 81, 238, 144, 2, 30, 5, 79, 255, 77, 195, 144, 2, 30, 5, 79, 255, 145, 204, 30, 5, 144, 2, 79, 255, 210, 194, 30, 5, 144, 2, 79, 255, 136, 255, 171, 2, 171, 2, 165, 254, 139, 189, 171, 2, 171, 2, 165, 254, 98, 205, 171, 2, 171, 2, 165, 254, 245, 239, 254, 255, 200, 175, 30, 5, 232, 218, 35, 251, 11, 169, 219, 4, 41, 250, 35, 251, 11, 169, 219, 4, 85, 249, 223, 250, 200, 175, 0, 0, 181, 254, 100, 255, 183, 172, 9, 5, 78, 226, 67, 255, 20, 176, 156, 2, 201, 228, 174, 254, 31, 173, 163, 2, 226, 232, 13, 251, 61, 170, 98, 2, 203, 254, 13, 251, 61, 170, 98, 2, 0, 237, 156, 253, 61, 170, 240, 4, 212, 231, 156, 253, 61, 170, 240, 4, 38, 237, 156, 253, 61, 170, 240, 4, 148, 239, 109, 253, 97, 171, 145, 2, 5, 241, 109, 253, 97, 171, 145, 2, 147, 250, 109, 253, 97, 171, 145, 2, 142, 244, 98, 253, 20, 176, 187, 0, 113, 243, 98, 253, 20, 176, 187, 0, 114, 243, 245, 250, 183, 172, 153, 0, 188, 248, 91, 253, 31, 173, 80, 1, 107, 252, 91, 253, 31, 173, 80, 1, 184, 246, 254, 255, 54, 80, 30, 5, 185, 214, 223, 250, 54, 80, 0, 0, 10, 249, 35, 251, 243, 86, 219, 4, 63, 203, 67, 255, 234, 79, 156, 2, 62, 225, 67, 255, 234, 79, 156, 2, 61, 225, 100, 255, 71, 83, 9, 5, 207, 208, 100, 255, 71, 83, 9, 5, 22, 210, 174, 254, 223, 82, 163, 2, 118, 216, 174, 254, 223, 82, 163, 2, 236, 219, 174, 254, 223, 82, 163, 2, 3, 223, 245, 250, 71, 83, 153, 0, 201, 239, 98, 253, 234, 79, 187, 0, 119, 238, 91, 253, 223, 82, 80, 1, 86, 230, 156, 253, 193, 85, 240, 4, 223, 203, 13, 251, 193, 85, 98, 2, 96, 225, 13, 251, 193, 85, 98, 2, 78, 220, 13, 251, 193, 85, 98, 2, 161, 219, 109, 253, 157, 84, 145, 2, 66, 216, 109, 253, 157, 84, 145, 2, 2, 219, 30, 5, 54, 80, 255, 255, 155, 189, 219, 4, 243, 86, 35, 251, 222, 181, 219, 4, 243, 86, 35, 251, 158, 182, 0, 0, 54, 80, 224, 250, 159, 212, 9, 5, 71, 83, 101, 255, 251, 145, 9, 5, 71, 83, 101, 255, 208, 145, 9, 5, 71, 83, 101, 255, 253, 193, 156, 2, 234, 79, 67, 255, 15, 194, 156, 2, 234, 79, 67, 255, 155, 186, 163, 2, 223, 82, 174, 254, 242, 162, 163, 2, 223, 82, 174, 254, 100, 201, 163, 2, 223, 82, 174, 254, 248, 188, 98, 2, 193, 85, 14, 251, 203, 189, 240, 4, 193, 85, 156, 253, 41, 166, 240, 4, 193, 85, 156, 253, 165, 164, 145, 2, 157, 84, 109, 253, 133, 176, 187, 0, 234, 79, 98, 253, 229, 203, 153, 0, 71, 83, 245, 250, 27, 199, 153, 0, 71, 83, 245, 250, 223, 219, 80, 1, 223, 82, 91, 253, 110, 187, 80, 1, 223, 82, 91, 253, 163, 211, 30, 5, 200, 175, 255, 255, 155, 192, 0, 0, 200, 175, 224, 250, 139, 207, 219, 4, 11, 169, 35, 251, 47, 247, 219, 4, 11, 169, 35, 251, 28, 246, 156, 2, 20, 176, 67, 255, 169, 195, 156, 2, 20, 176, 67, 255, 170, 195, 9, 5, 183, 172, 101, 255, 140, 195, 163, 2, 31, 173, 174, 254, 208, 200, 163, 2, 31, 173, 174, 254, 252, 183, 153, 0, 183, 172, 245, 250, 218, 199, 187, 0, 20, 176, 98, 253, 127, 200, 80, 1, 31, 173, 91, 253, 192, 190, 240, 4, 61, 170, 156, 253, 108, 240, 240, 4, 61, 170, 156, 253, 74, 201, 98, 2, 61, 170, 14, 251, 230, 235, 98, 2, 61, 170, 14, 251, 160, 242, 98, 2, 61, 170, 14, 251, 155, 190, 145, 2, 97, 171, 109, 253, 112, 232, 145, 2, 97, 171, 109, 253, 150, 206, 145, 2, 97, 171, 109, 253, 21, 180, 223, 250, 200, 175, 255, 255, 3, 192, 35, 251, 11, 169, 35, 251, 122, 246, 35, 251, 11, 169, 35, 251, 143, 249, 254, 255, 200, 175, 224, 250, 161, 212, 245, 250, 183, 172, 101, 255, 163, 192, 98, 253, 20, 176, 67, 255, 102, 195, 91, 253, 31, 173, 174, 254, 47, 192, 156, 253, 61, 170, 14, 251, 32, 236, 156, 253, 61, 170, 14, 251, 42, 233, 13, 251, 61, 170, 156, 253, 84, 244, 13, 251, 61, 170, 156, 253, 173, 252, 13, 251, 61, 170, 156, 253, 87, 198, 109, 253, 97, 171, 109, 253, 203, 236, 109, 253, 97, 171, 109, 253, 142, 196, 109, 253, 97, 171, 109, 253, 87, 226, 67, 255, 20, 176, 98, 253, 8, 205, 67, 255, 20, 176, 98, 253, 7, 205, 100, 255, 183, 172, 245, 250, 35, 221, 174, 254, 31, 173, 91, 253, 198, 200, 174, 254, 31, 173, 91, 253, 191, 215, 223, 250, 54, 80, 255, 255, 0, 195, 254, 255, 54, 80, 224, 250, 139, 207, 35, 251, 243, 86, 35, 251, 147, 182, 35, 251, 243, 86, 35, 251, 211, 181, 98, 253, 234, 79, 67, 255, 170, 195, 98, 253, 234, 79, 67, 255, 61, 203, 245, 250, 71, 83, 101, 255, 225, 145, 245, 250, 71, 83, 101, 255, 209, 193, 91, 253, 223, 82, 174, 254, 176, 190, 91, 253, 223, 82, 174, 254, 203, 162, 91, 253, 223, 82, 174, 254, 41, 203, 100, 255, 71, 83, 245, 250, 160, 200, 100, 255, 71, 83, 245, 250, 22, 199, 100, 255, 71, 83, 245, 250, 19, 198, 67, 255, 234, 79, 98, 253, 127, 200, 174, 254, 223, 82, 91, 253, 146, 193, 174, 254, 223, 82, 91, 253, 121, 188, 13, 251, 193, 85, 156, 253, 218, 164, 156, 253, 193, 85, 14, 251, 164, 188, 156, 253, 193, 85, 14, 251, 206, 189, 109, 253, 157, 84, 109, 253, 197, 175, 0, 0, 200, 175, 30, 5, 183, 214, 30, 5, 200, 175, 0, 0, 10, 249, 219, 4, 11, 169, 219, 4, 133, 247, 219, 4, 11, 169, 219, 4, 54, 252, 187, 0, 20, 176, 156, 2, 186, 224, 153, 0, 183, 172, 9, 5, 72, 209, 80, 1, 31, 173, 163, 2, 16, 221, 9, 5, 183, 172, 153, 0, 211, 239, 156, 2, 20, 176, 187, 0, 60, 238, 156, 2, 20, 176, 187, 0, 60, 238, 163, 2, 31, 173, 80, 1, 216, 231, 163, 2, 31, 173, 80, 1, 73, 230, 98, 2, 61, 170, 240, 4, 47, 237, 98, 2, 61, 170, 240, 4, 38, 203, 240, 4, 61, 170, 98, 2, 240, 248, 240, 4, 61, 170, 98, 2, 232, 250, 240, 4, 61, 170, 98, 2, 117, 225, 145, 2, 97, 171, 145, 2, 100, 243, 145, 2, 97, 171, 145, 2, 212, 217, 145, 2, 97, 171, 145, 2, 81, 216, 0, 0, 54, 80, 30, 5, 230, 218, 219, 4, 243, 86, 219, 4, 83, 203, 30, 5, 54, 80, 0, 0, 180, 254, 153, 0, 71, 83, 9, 5, 228, 209, 153, 0, 71, 83, 9, 5, 225, 211, 153, 0, 71, 83, 9, 5, 246, 226, 187, 0, 234, 79, 156, 2, 56, 228, 187, 0, 234, 79, 156, 2, 57, 228, 80, 1, 223, 82, 163, 2, 79, 225, 80, 1, 223, 82, 163, 2, 247, 240, 80, 1, 223, 82, 163, 2, 144, 234, 240, 4, 193, 85, 98, 2, 32, 237, 240, 4, 193, 85, 98, 2, 239, 219, 98, 2, 193, 85, 240, 4, 174, 203, 98, 2, 193, 85, 240, 4, 117, 204, 145, 2, 157, 84, 145, 2, 246, 250, 145, 2, 157, 84, 145, 2, 101, 219, 156, 2, 234, 79, 187, 0, 34, 243, 9, 5, 71, 83, 153, 0, 208, 248, 163, 2, 223, 82, 80, 1, 24, 252, 193, 232, 234, 162, 61, 23, 188, 249, 193, 232, 234, 162, 61, 23, 165, 251, 156, 228, 234, 158, 12, 30, 79, 232, 219, 227, 202, 158, 0, 29, 43, 237, 219, 227, 202, 158, 0, 29, 49, 242, 241, 225, 234, 158, 98, 27, 100, 245, 241, 225, 234, 158, 98, 27, 103, 248, 254, 226, 202, 158, 34, 28, 182, 240, 254, 226, 202, 158, 34, 28, 66, 230, 98, 230, 96, 161, 104, 26, 52, 243, 150, 229, 96, 161, 156, 25, 69, 250, 150, 229, 96, 161, 156, 25, 160, 252, 170, 228, 112, 160, 83, 27, 4, 243, 170, 228, 112, 160, 83, 27, 0, 242, 193, 232, 20, 93, 61, 23, 112, 200, 156, 228, 20, 97, 12, 30, 179, 207, 156, 228, 20, 97, 12, 30, 172, 206, 219, 227, 52, 97, 0, 29, 105, 214, 150, 229, 158, 94, 156, 25, 218, 211, 98, 230, 158, 94, 104, 26, 119, 200, 98, 230, 158, 94, 104, 26, 47, 202, 170, 228, 142, 95, 83, 27, 248, 211, 241, 225, 20, 97, 98, 27, 253, 229, 254, 226, 52, 97, 34, 28, 197, 222, 61, 23, 20, 93, 193, 232, 58, 184, 61, 23, 20, 93, 193, 232, 157, 184, 12, 30, 20, 97, 156, 228, 51, 156, 0, 29, 52, 97, 220, 227, 237, 170, 0, 29, 52, 97, 220, 227, 20, 174, 98, 27, 20, 97, 242, 225, 189, 193, 98, 27, 20, 97, 242, 225, 21, 184, 34, 28, 52, 97, 254, 226, 243, 171, 34, 28, 52, 97, 254, 226, 45, 178, 104, 26, 158, 94, 98, 230, 198, 172, 156, 25, 158, 94, 150, 229, 146, 186, 156, 25, 158, 94, 150, 229, 101, 188, 83, 27, 142, 95, 171, 228, 135, 175, 83, 27, 142, 95, 171, 228, 228, 178, 61, 23, 234, 162, 193, 232, 228, 250, 61, 23, 234, 162, 193, 232, 142, 248, 12, 30, 234, 158, 156, 228, 112, 253, 12, 30, 234, 158, 156, 228, 226, 246, 0, 29, 202, 158, 220, 227, 27, 253, 156, 25, 96, 161, 150, 229, 12, 241, 104, 26, 96, 161, 98, 230, 167, 248, 104, 26, 96, 161, 98, 230, 139, 252, 83, 27, 112, 160, 171, 228, 194, 245, 98, 27, 234, 158, 242, 225, 246, 227, 34, 28, 202, 158, 254, 226, 147, 231, 193, 232, 234, 162, 193, 232, 128, 248, 193, 232, 234, 162, 193, 232, 248, 250, 241, 225, 234, 158, 156, 228, 67, 255, 254, 226, 202, 158, 220, 227, 117, 251, 156, 228, 234, 158, 242, 225, 73, 227, 156, 228, 234, 158, 242, 225, 114, 229, 219, 227, 202, 158, 254, 226, 130, 227, 150, 229, 96, 161, 98, 230, 132, 251, 98, 230, 96, 161, 150, 229, 226, 245, 98, 230, 96, 161, 150, 229, 25, 240, 170, 228, 112, 160, 171, 228, 112, 247, 193, 232, 20, 93, 193, 232, 154, 184, 193, 232, 20, 93, 193, 232, 61, 184, 241, 225, 20, 97, 156, 228, 165, 155, 241, 225, 20, 97, 156, 228, 85, 156, 254, 226, 52, 97, 220, 227, 124, 168, 254, 226, 52, 97, 220, 227, 235, 170, 98, 230, 158, 94, 150, 229, 11, 188, 150, 229, 158, 94, 98, 230, 61, 173, 150, 229, 158, 94, 98, 230, 169, 172, 170, 228, 142, 95, 171, 228, 48, 176, 170, 228, 142, 95, 171, 228, 162, 176, 156, 228, 20, 97, 242, 225, 78, 193, 219, 227, 52, 97, 254, 226, 180, 179, 219, 227, 52, 97, 254, 226, 21, 175, 61, 23, 234, 162, 61, 23, 177, 251, 61, 23, 234, 162, 61, 23, 172, 249, 98, 27, 234, 158, 12, 30, 139, 214, 98, 27, 234, 158, 12, 30, 217, 232, 34, 28, 202, 158, 0, 29, 176, 240, 34, 28, 202, 158, 0, 29, 87, 226, 104, 26, 96, 161, 156, 25, 228, 250, 156, 25, 96, 161, 104, 26, 2, 244, 156, 25, 96, 161, 104, 26, 42, 239, 83, 27, 112, 160, 83, 27, 242, 246, 83, 27, 112, 160, 83, 27, 21, 240, 12, 30, 234, 158, 98, 27, 141, 249, 0, 29, 202, 158, 34, 28, 245, 243, 0, 29, 202, 158, 34, 28, 185, 240, 61, 23, 20, 93, 61, 23, 109, 200, 98, 27, 20, 97, 12, 30, 252, 206, 34, 28, 52, 97, 0, 29, 74, 215, 12, 30, 20, 97, 98, 27, 36, 231, 12, 30, 20, 97, 98, 27, 160, 229, 0, 29, 52, 97, 34, 28, 72, 223, 156, 25, 158, 94, 104, 26, 182, 200, 104, 26, 158, 94, 156, 25, 242, 211, 104, 26, 158, 94, 156, 25, 166, 211, 83, 27, 142, 95, 83, 27, 144, 211, 79, 255, 110, 253, 30, 5, 191, 209, 223, 250, 110, 253, 175, 0, 193, 243, 82, 253, 83, 253, 89, 1, 26, 204, 82, 253, 83, 253, 89, 1, 24, 224, 79, 255, 30, 5, 144, 2, 208, 247, 79, 255, 30, 5, 144, 2, 69, 218, 165, 254, 171, 2, 171, 2, 49, 248, 165, 254, 171, 2, 171, 2, 253, 225, 165, 254, 171, 2, 171, 2, 171, 226, 223, 250, 110, 253, 79, 255, 184, 193, 165, 254, 83, 253, 83, 253, 90, 187, 165, 254, 83, 253, 83, 253, 43, 200, 165, 254, 83, 253, 83, 253, 225, 186, 165, 254, 83, 253, 83, 253, 20, 197, 79, 255, 144, 2, 224, 250, 244, 222, 110, 253, 30, 5, 79, 255, 9, 198, 82, 253, 171, 2, 165, 254, 254, 241, 89, 1, 83, 253, 171, 2, 175, 220, 89, 1, 83, 253, 171, 2, 79, 231, 144, 2, 224, 250, 175, 0, 242, 235, 144, 2, 224, 250, 175, 0, 255, 255, 171, 2, 83, 253, 89, 1, 67, 229, 171, 2, 83, 253, 89, 1, 192, 245, 89, 1, 171, 2, 171, 2, 245, 218, 89, 1, 171, 2, 171, 2, 29, 205, 89, 1, 171, 2, 171, 2, 93, 226, 171, 2, 171, 2, 89, 1, 155, 241, 171, 2, 171, 2, 89, 1, 215, 237, 171, 2, 83, 253, 165, 254, 155, 184, 171, 2, 83, 253, 165, 254, 21, 187, 171, 2, 83, 253, 165, 254, 86, 210, 89, 1, 171, 2, 83, 253, 86, 201, 89, 1, 171, 2, 83, 253, 246, 226, 89, 1, 171, 2, 83, 253, 216, 221, 144, 2, 30, 5, 79, 255, 220, 199, 144, 2, 30, 5, 79, 255, 245, 200, 171, 2, 171, 2, 165, 254, 46, 198, 171, 2, 171, 2, 165, 254, 33, 239, 156, 253, 61, 170, 240, 4, 145, 239, 98, 253, 20, 176, 187, 0, 194, 250, 98, 253, 20, 176, 187, 0, 41, 233, 100, 255, 71, 83, 9, 5, 10, 208, 174, 254, 223, 82, 163, 2, 171, 224, 13, 251, 193, 85, 98, 2, 114, 234, 9, 5, 71, 83, 101, 255, 116, 192, 163, 2, 223, 82, 174, 254, 72, 202, 153, 0, 71, 83, 245, 250, 27, 196, 153, 0, 71, 83, 245, 250, 28, 217, 156, 2, 20, 176, 67, 255, 233, 192, 156, 2, 20, 176, 67, 255, 20, 209, 98, 2, 61, 170, 14, 251, 32, 191, 13, 251, 61, 170, 156, 253, 171, 191, 67, 255, 20, 176, 98, 253, 177, 199, 67, 255, 20, 176, 98, 253, 40, 212, 245, 250, 71, 83, 101, 255, 11, 157, 245, 250, 71, 83, 101, 255, 253, 192, 100, 255, 71, 83, 245, 250, 198, 195, 174, 254, 223, 82, 91, 253, 147, 188, 156, 253, 193, 85, 14, 251, 252, 177, 98, 2, 61, 170, 240, 4, 251, 211, 240, 4, 61, 170, 98, 2, 148, 238, 145, 2, 97, 171, 145, 2, 238, 219, 145, 2, 97, 171, 145, 2, 99, 228, 153, 0, 71, 83, 9, 5, 178, 217, 187, 0, 234, 79, 156, 2, 236, 244, 187, 0, 234, 79, 156, 2, 95, 219, 240, 4, 193, 85, 98, 2, 255, 255, 240, 4, 193, 85, 98, 2, 60, 213, 102, 176, 141, 85, 23, 190, 236, 61, 243, 241, 132, 120, 245, 180, 140, 79, 115, 189, 165, 93, 188, 188, 101, 91, 13, 196, 242, 93, 62, 192, 123, 85, 79, 247, 181, 128, 196, 197, 51, 58, 186, 179, 27, 61, 221, 185, 106, 69, 185, 218, 191, 108, 107, 186, 169, 54, 152, 196, 177, 71, 92, 213, 100, 105, 83, 244, 208, 122, 119, 217, 153, 104, 82, 132, 34, 62, 13, 189, 229, 68, 225, 167, 252, 79, 129, 131, 74, 49, 196, 143, 117, 68, 212, 145, 210, 59, 144, 182, 168, 72, 241, 54, 8, 201, 101, 127, 43, 27, 40, 51, 8, 205, 228, 145, 170, 43, 204, 158, 225, 76, 122, 157, 66, 75, 225, 173, 127, 76, 216, 168, 40, 69, 202, 168, 13, 78, 254, 158, 144, 66, 212, 158, 95, 66, 221, 142, 230, 127, 214, 171, 111, 87, 60, 240, 161, 120, 162, 155, 251, 110, 141, 230, 71, 100, 146, 155, 164, 144, 153, 182, 131, 92, 207, 170, 22, 128, 242, 184, 160, 93, 112, 185, 213, 95, 63, 166, 147, 95, 83, 164, 190, 88, 165, 178, 150, 94, 190, 179, 100, 108, 170, 178, 210, 94, 44, 237, 136, 117, 208, 209, 78, 106, 82, 203, 79, 107, 43, 165, 154, 85, 177, 127, 171, 112, 206, 131, 241, 69, 114, 158, 26, 91, 217, 154, 11, 80, 8, 156, 140, 81, 56, 149, 107, 85, 224, 152, 70, 90, 63, 25, 143, 249, 89, 111, 106, 100, 168, 144, 32, 100, 152, 142, 28, 95, 215, 131, 240, 88, 229, 144, 254, 101, 162, 122, 83, 83, 42, 142, 143, 74, 91, 132, 130, 82, 32, 140, 213, 83, 55, 87, 129, 174, 132, 248, 10, 142, 151, 197, 161, 61, 164, 221, 139, 194, 50, 97, 29, 179, 150, 81, 186, 178, 242, 221, 240, 187, 144, 91, 13, 183, 207, 250, 170, 139, 99, 233, 162, 170, 152, 232, 135, 166, 197, 72, 141, 182, 188, 66, 97, 175, 73, 255, 79, 119, 13, 201, 246, 54, 191, 236, 68, 165, 239, 81, 38, 184, 6, 211, 67, 57, 213, 78, 214, 168, 79, 64, 64, 192, 34, 190, 172, 251, 141, 74, 157, 175, 47, 70, 33, 168, 66, 67, 153, 164, 65, 203, 131, 226, 7, 67, 202, 177, 12, 60, 72, 162, 95, 194, 42, 225, 58, 58, 203, 197, 211, 100, 100, 255, 123, 69, 179, 185, 25, 64, 42, 192, 170, 171, 25, 238, 116, 196, 58, 240, 73, 177, 125, 252, 210, 187, 42, 238, 211, 90, 100, 170, 77, 128, 83, 143, 161, 248, 193, 143, 140, 97, 228, 164, 159, 221, 11, 199, 37, 101, 243, 175, 149, 222, 88, 205, 198, 106, 147, 170, 71, 228, 113, 153, 165, 144, 148, 155, 102, 113, 226, 160, 86, 111, 222, 155, 131, 220, 101, 201, 92, 133, 171, 172, 39, 124, 14, 167, 77, 234, 45, 174, 136, 245, 210, 146, 79, 235, 171, 180, 136, 83, 252, 166, 241, 197, 47, 252, 125, 113, 180, 127, 142, 70, 41, 160, 139, 209, 246, 227, 141, 89, 186, 159, 185, 76, 142, 153, 70, 218, 29, 231, 130, 210, 162, 251, 142, 202, 211, 241, 212, 211, 222, 243, 89, 100, 134, 144, 59, 100, 82, 140, 108, 100, 90, 111, 143, 121, 191, 102, 167, 83, 92, 132, 176, 89, 102, 123, 254, 229, 24, 239, 212, 169, 210, 81, 65, 138, 136, 61, 56, 137, 208, 60, 138, 188, 217, 67, 131, 161, 2, 77, 182, 175, 166, 77, 66, 166, 43, 71, 42, 144, 253, 52, 136, 48, 22, 205, 25, 142, 230, 62, 232, 147, 80, 68, 81, 150, 143, 70, 120, 151, 89, 59, 168, 42, 174, 205, 204, 156, 130, 64, 209, 183, 87, 73, 210, 183, 88, 73, 209, 54, 208, 198, 86, 183, 103, 79, 169, 171, 201, 66, 146, 175, 233, 84, 17, 191, 125, 64, 54, 231, 62, 114, 133, 180, 244, 79, 133, 180, 243, 79, 94, 185, 36, 89, 70, 186, 148, 91, 67, 182, 244, 70, 107, 188, 12, 83, 142, 192, 44, 91, 217, 194, 46, 59, 201, 185, 5, 71, 148, 186, 252, 62, 111, 205, 222, 100, 175, 200, 40, 53, 39, 240, 237, 122, 204, 233, 163, 109, 158, 190, 143, 56, 123, 209, 205, 98, 211, 125, 17, 142, 5, 239, 223, 157, 204, 244, 247, 158, 27, 90, 209, 169, 159, 225, 72, 172, 111, 222, 128, 168, 25, 139, 36, 154, 49, 109, 128, 154, 148, 110, 142, 158, 233, 219, 7, 213, 13, 118, 227, 162, 103, 123, 254, 169, 89, 230, 184, 184, 129, 246, 177, 164, 234, 235, 136, 157, 177, 231, 138, 194, 127, 96, 250, 163, 63, 220, 141, 203, 220, 98, 18, 174, 225, 221, 93, 211, 252, 103, 189, 167, 126, 114, 127, 130, 163, 84, 72, 167, 126, 203, 228, 248, 254, 202, 185, 249, 218, 101, 140, 146, 218, 101, 139, 146, 135, 102, 129, 116, 204, 90, 65, 133, 240, 88, 48, 143, 69, 75, 163, 162, 26, 91, 76, 160, 220, 82, 98, 158, 81, 214, 147, 254, 128, 90, 86, 104, 32, 207, 31, 237, 25, 211, 200, 232, 165, 56, 162, 151, 150, 217, 228, 239, 92, 78, 241, 120, 133, 67, 191, 146, 131, 130, 104, 114, 141, 134, 43, 75, 229, 136, 145, 76, 229, 165, 47, 86, 81, 116, 199, 101, 7, 147, 39, 102, 41, 134, 21, 88, 6, 147, 68, 79, 252, 144, 102, 77, 142, 131, 99, 87, 215, 135, 136, 89, 241, 103, 136, 89, 12, 146, 104, 91, 218, 120, 209, 73, 51, 141, 224, 86, 220, 159, 223, 92, 220, 159, 222, 92, 226, 157, 252, 82, 214, 146, 26, 80, 173, 153, 226, 90, 69, 141, 242, 125, 91, 171, 182, 88, 20, 225, 131, 116, 50, 226, 154, 110, 36, 154, 115, 109, 119, 154, 233, 112, 156, 213, 6, 96, 46, 154, 30, 139, 65, 166, 23, 117, 3, 171, 170, 91, 248, 164, 243, 123, 3, 181, 121, 94, 111, 180, 56, 92, 8, 180, 168, 90, 228, 164, 178, 95, 133, 173, 126, 100, 203, 172, 26, 95, 192, 224, 115, 110, 40, 199, 53, 99, 70, 199, 99, 102, 176, 189, 91, 102, 109, 80, 24, 171, 240, 64, 133, 191, 47, 187, 30, 249, 68, 191, 60, 243, 35, 76, 36, 177, 72, 70, 239, 165, 245, 65, 197, 169, 101, 61, 36, 197, 20, 71, 34, 186, 19, 71, 33, 186, 49, 59, 20, 177, 12, 70, 253, 193, 89, 196, 12, 236, 53, 51, 214, 157, 147, 171, 45, 252, 154, 100, 139, 61, 121, 55, 28, 203, 222, 190, 227, 228, 95, 49, 169, 163, 192, 65, 65, 200, 44, 86, 46, 174, 36, 243, 150, 152, 119, 67, 40, 188, 54, 219, 218, 197, 197, 222, 136, 196, 242, 93, 69, 178, 252, 80, 101, 179, 251, 80, 100, 179, 120, 224, 189, 188, 129, 80, 45, 173, 170, 87, 55, 182, 74, 207, 173, 50, 2, 245, 171, 146, 44, 228, 185, 178, 229, 230, 18, 178, 223, 212, 213, 49, 171, 228, 176, 173, 13, 73, 185, 183, 235, 200, 229, 56, 77, 73, 73, 177, 121, 133, 131, 60, 211, 135, 7, 62, 0, 155, 77, 72, 239, 144, 8, 56, 106, 152, 34, 63, 77, 120, 39, 37, 26, 131, 154, 34, 5, 144, 35, 53, 247, 118, 220, 42, 14, 143, 220, 66, 214, 131, 139, 50, 229, 135, 95, 53, 230, 139, 200, 56, 89, 138, 132, 55, 22, 236, 80, 117, 5, 196, 16, 97, 58, 195, 118, 94, 38, 207, 167, 93, 125, 240, 192, 120, 147, 215, 251, 104, 19, 217, 89, 113, 102, 223, 251, 115, 10, 242, 19, 129, 64, 223, 250, 121, 18, 243, 48, 151, 74, 247, 218, 151, 164, 234, 2, 169, 49, 226, 110, 187, 232, 233, 103, 189, 246, 225, 3, 195, 209, 188, 243, 199, 88, 187, 246, 185, 96, 230, 249, 190, 87, 243, 194, 151, 34, 228, 171, 172, 168, 236, 231, 172, 82, 224, 230, 172, 113, 239, 76, 176, 122, 201, 88, 249, 95, 200, 75, 251, 243, 225, 51, 247, 251, 114, 22, 100, 78, 223, 138, 234, 77, 203, 222, 242, 246, 208, 61, 252, 53, 210, 191, 249, 42, 212, 231, 241, 54, 209, 76, 232, 4, 214, 207, 240, 166, 132, 89, 72, 183, 134, 132, 73, 129, 29, 255, 245, 193, 148, 188, 94, 69, 151, 188, 80, 154, 152, 63, 82, 3, 141, 12, 84, 152, 133, 226, 81, 180, 144, 5, 78, 99, 140, 191, 74, 13, 143, 218, 84, 39, 232, 50, 119, 200, 232, 54, 115, 0, 220, 20, 101, 179, 223, 222, 75, 53, 203, 90, 59, 146, 196, 43, 98, 32, 211, 74, 107, 26, 230, 216, 119, 6, 233, 171, 113, 17, 210, 226, 100, 141, 209, 47, 103, 223, 188, 42, 97, 153, 192, 89, 105, 25, 194, 189, 94, 16, 190, 28, 248, 117, 188, 153, 250, 131, 174, 88, 252, 218, 200, 126, 228, 32, 189, 177, 233, 67, 85, 121, 249, 79, 179, 14, 251, 134, 195, 26, 240, 85, 191, 92, 245, 79, 189, 136, 238, 3, 181, 183, 248, 209, 165, 6, 249, 69, 186, 92, 234, 39, 181, 244, 239, 29, 245, 240, 147, 71, 223, 132, 188, 102, 226, 247, 174, 252, 243, 231, 100, 60, 252, 234, 142, 30, 252, 206, 159, 93, 234, 43, 168, 99, 250, 232, 142, 66, 244, 32, 145, 178, 241, 85, 161, 206, 176, 146, 79, 79, 180, 101, 37, 37, 225, 235, 128, 214, 176, 73, 59, 192, 169, 92, 54, 204, 165, 149, 74, 214, 61, 240, 200, 46, 158, 56, 74, 164, 134, 207, 84, 117, 142, 84, 142, 237, 201, 205, 120, 11, 195, 85, 96, 207, 160, 96, 112, 181, 172, 230, 81, 207, 163, 175, 82, 210, 153, 69, 92, 126, 129, 52, 140, 171, 252, 9, 101, 146, 80, 225, 171, 205, 77, 38, 179, 100, 105, 196, 4, 92, 244, 173, 97, 247, 195, 156, 48, 140, 78, 220, 189, 152, 78, 73, 169, 61, 203, 34, 238, 47, 77, 255, 215, 195, 203, 156, 255, 12, 244, 141, 157, 92, 130, 230, 158, 79, 93, 222, 181, 33, 83, 60, 166, 216, 236, 164, 251, 176, 5, 144, 12, 207, 93, 233, 152, 45, 112, 210, 123, 101, 109, 216, 104, 91, 26, 46, 1, 7, 171, 55, 72, 177, 139, 54, 26, 5, 176, 198, 75, 3, 174, 192, 81, 24, 186, 38, 67, 121, 185, 80, 34, 189, 121, 126, 154, 246, 99, 39, 166, 212, 227, 247, 197, 25, 91, 179, 167, 210, 107, 183, 130, 137, 84, 8, 162, 208, 74, 219, 167, 66, 121, 142, 81, 58, 150, 232, 100, 13, 162, 16, 85, 54, 225, 59, 101, 162, 141, 81, 137, 30, 167, 85, 90, 47, 160, 53, 100, 214, 191, 71, 100, 55, 75, 115, 185, 175, 71, 126, 226, 34, 75, 6, 190, 172, 80, 42, 222, 154, 228, 21, 186, 148, 110, 131, 221, 106, 85, 52, 174, 18, 201, 95, 35, 81, 233, 224, 158)
}, {
"aabb": AABB(-0.786051, -0.241549, -0.786051, 1.5721, 0.483097, 1.5721),
"attribute_data": PackedByteArray(51, 157, 191, 21, 72, 131, 55, 81, 72, 131, 210, 82, 51, 157, 35, 20, 151, 155, 192, 20, 118, 130, 207, 82, 97, 156, 108, 20, 173, 129, 53, 82, 72, 131, 0, 82, 118, 130, 137, 82, 225, 174, 191, 21, 247, 148, 55, 81, 124, 176, 192, 20, 247, 148, 210, 82, 225, 174, 35, 20, 146, 150, 210, 82, 124, 176, 108, 20, 247, 148, 0, 82, 146, 150, 53, 82, 146, 150, 137, 82, 182, 226, 55, 81, 203, 200, 191, 21, 203, 200, 35, 20, 182, 226, 210, 82, 81, 228, 53, 82, 157, 201, 39, 20, 135, 227, 137, 82, 102, 202, 192, 20, 203, 200, 245, 20, 157, 201, 108, 20, 7, 209, 55, 81, 29, 183, 191, 21, 108, 207, 53, 82, 29, 183, 35, 20, 7, 209, 210, 82, 130, 181, 35, 20, 108, 207, 137, 82, 29, 183, 245, 20, 130, 181, 192, 20, 130, 181, 108, 20, 7, 209, 191, 21, 51, 157, 55, 81, 51, 157, 210, 82, 7, 209, 35, 20, 108, 207, 192, 20, 151, 155, 210, 82, 108, 207, 108, 20, 151, 155, 53, 82, 51, 157, 0, 82, 151, 155, 137, 82, 182, 226, 191, 21, 225, 174, 55, 81, 81, 228, 192, 20, 225, 174, 210, 82, 182, 226, 35, 20, 179, 175, 207, 82, 135, 227, 108, 20, 225, 174, 0, 82, 124, 176, 53, 82, 179, 175, 137, 82, 29, 183, 55, 81, 72, 131, 191, 21, 130, 181, 53, 82, 72, 131, 35, 20, 29, 183, 210, 82, 118, 130, 39, 20, 75, 182, 137, 82, 72, 131, 245, 20, 173, 129, 192, 20, 118, 130, 108, 20, 203, 200, 55, 81, 247, 148, 191, 21, 247, 148, 35, 20, 203, 200, 210, 82, 102, 202, 53, 82, 146, 150, 35, 20, 102, 202, 137, 82, 146, 150, 192, 20, 247, 148, 245, 20, 146, 150, 108, 20, 151, 155, 192, 20, 118, 130, 207, 82, 97, 156, 108, 20, 173, 129, 53, 82, 118, 130, 137, 82, 247, 148, 210, 82, 225, 174, 35, 20, 146, 150, 53, 82, 81, 228, 53, 82, 157, 201, 39, 20, 135, 227, 137, 82, 102, 202, 192, 20, 157, 201, 108, 20, 29, 183, 35, 20, 7, 209, 210, 82, 130, 181, 192, 20, 108, 207, 192, 20, 151, 155, 210, 82, 108, 207, 108, 20, 151, 155, 53, 82, 151, 155, 137, 82, 225, 174, 210, 82, 182, 226, 35, 20, 124, 176, 53, 82, 72, 131, 35, 20, 29, 183, 210, 82, 173, 129, 192, 20, 102, 202, 53, 82, 146, 150, 35, 20, 102, 202, 137, 82, 146, 150, 192, 20, 146, 150, 108, 20),
"format": 34896613399,
"index_count": 288,
"index_data": PackedByteArray(50, 0, 30, 0, 40, 0, 50, 0, 20, 0, 30, 0, 71, 0, 1, 0, 61, 0, 71, 0, 11, 0, 1, 0, 21, 0, 60, 0, 31, 0, 21, 0, 70, 0, 60, 0, 10, 0, 41, 0, 0, 0, 10, 0, 51, 0, 41, 0, 0, 0, 6, 0, 3, 0, 0, 0, 4, 0, 6, 0, 2, 0, 9, 0, 8, 0, 2, 0, 5, 0, 9, 0, 1, 0, 9, 0, 7, 0, 1, 0, 8, 0, 9, 0, 10, 0, 16, 0, 12, 0, 10, 0, 14, 0, 16, 0, 11, 0, 19, 0, 17, 0, 11, 0, 18, 0, 19, 0, 17, 0, 15, 0, 13, 0, 17, 0, 19, 0, 15, 0, 20, 0, 26, 0, 23, 0, 20, 0, 24, 0, 26, 0, 22, 0, 29, 0, 28, 0, 22, 0, 25, 0, 29, 0, 21, 0, 29, 0, 27, 0, 21, 0, 28, 0, 29, 0, 30, 0, 36, 0, 32, 0, 30, 0, 34, 0, 36, 0, 31, 0, 39, 0, 37, 0, 31, 0, 38, 0, 39, 0, 37, 0, 35, 0, 33, 0, 37, 0, 39, 0, 35, 0, 40, 0, 46, 0, 43, 0, 40, 0, 44, 0, 46, 0, 42, 0, 49, 0, 48, 0, 42, 0, 45, 0, 49, 0, 41, 0, 49, 0, 47, 0, 41, 0, 48, 0, 49, 0, 50, 0, 56, 0, 52, 0, 50, 0, 54, 0, 56, 0, 51, 0, 59, 0, 57, 0, 51, 0, 58, 0, 59, 0, 57, 0, 55, 0, 53, 0, 57, 0, 59, 0, 55, 0, 60, 0, 66, 0, 62, 0, 60, 0, 64, 0, 66, 0, 61, 0, 69, 0, 67, 0, 61, 0, 68, 0, 69, 0, 67, 0, 65, 0, 63, 0, 67, 0, 69, 0, 65, 0, 70, 0, 76, 0, 73, 0, 70, 0, 74, 0, 76, 0, 72, 0, 79, 0, 78, 0, 72, 0, 75, 0, 79, 0, 71, 0, 79, 0, 77, 0, 71, 0, 78, 0, 79, 0, 0, 0, 14, 0, 10, 0, 0, 0, 3, 0, 14, 0, 2, 0, 17, 0, 13, 0, 2, 0, 8, 0, 17, 0, 8, 0, 11, 0, 17, 0, 8, 0, 1, 0, 11, 0, 20, 0, 34, 0, 30, 0, 20, 0, 23, 0, 34, 0, 22, 0, 37, 0, 33, 0, 22, 0, 28, 0, 37, 0, 28, 0, 31, 0, 37, 0, 28, 0, 21, 0, 31, 0, 40, 0, 54, 0, 50, 0, 40, 0, 43, 0, 54, 0, 42, 0, 57, 0, 53, 0, 42, 0, 48, 0, 57, 0, 48, 0, 51, 0, 57, 0, 48, 0, 41, 0, 51, 0, 61, 0, 78, 0, 71, 0, 61, 0, 67, 0, 78, 0, 67, 0, 72, 0, 78, 0, 67, 0, 63, 0, 72, 0, 64, 0, 70, 0, 73, 0, 64, 0, 60, 0, 70, 0, 71, 0, 18, 0, 11, 0, 71, 0, 77, 0, 18, 0, 68, 0, 1, 0, 7, 0, 68, 0, 61, 0, 1, 0, 10, 0, 58, 0, 51, 0, 10, 0, 12, 0, 58, 0, 4, 0, 41, 0, 47, 0, 4, 0, 0, 0, 41, 0, 21, 0, 74, 0, 70, 0, 21, 0, 27, 0, 74, 0, 38, 0, 60, 0, 62, 0, 38, 0, 31, 0, 60, 0, 50, 0, 24, 0, 20, 0, 50, 0, 52, 0, 24, 0, 44, 0, 30, 0, 32, 0, 44, 0, 40, 0, 30, 0),
"lods": [0.0644553, PackedByteArray(110, 0, 83, 0, 106, 0, 110, 0, 87, 0, 83, 0, 106, 0, 104, 0, 110, 0, 110, 0, 104, 0, 111, 0, 104, 0, 108, 0, 111, 0, 106, 0, 69, 0, 104, 0, 104, 0, 69, 0, 65, 0, 85, 0, 83, 0, 87, 0, 83, 0, 85, 0, 84, 0, 85, 0, 81, 0, 84, 0, 87, 0, 19, 0, 85, 0, 85, 0, 19, 0, 15, 0, 91, 0, 105, 0, 95, 0, 95, 0, 105, 0, 62, 0, 105, 0, 66, 0, 62, 0, 91, 0, 107, 0, 105, 0, 105, 0, 107, 0, 109, 0, 93, 0, 91, 0, 95, 0, 91, 0, 93, 0, 92, 0, 93, 0, 89, 0, 92, 0, 95, 0, 39, 0, 93, 0, 93, 0, 39, 0, 35, 0, 86, 0, 103, 0, 99, 0, 86, 0, 12, 0, 103, 0, 86, 0, 16, 0, 12, 0, 80, 0, 86, 0, 99, 0, 86, 0, 80, 0, 82, 0, 101, 0, 99, 0, 103, 0, 99, 0, 101, 0, 100, 0, 101, 0, 97, 0, 100, 0, 103, 0, 59, 0, 101, 0, 101, 0, 59, 0, 55, 0, 94, 0, 88, 0, 90, 0, 94, 0, 36, 0, 32, 0, 96, 0, 94, 0, 32, 0, 102, 0, 88, 0, 94, 0, 96, 0, 102, 0, 94, 0, 102, 0, 96, 0, 98, 0, 102, 0, 52, 0, 88, 0, 102, 0, 56, 0, 52, 0)],
"material": SubResource("ShaderMaterial_vpker"),
"name": "Material.001",
"primitive": 3,
"uv_scale": Vector4(0, 0, 0, 0),
"vertex_count": 112,
"vertex_data": PackedByteArray(22, 255, 169, 244, 107, 7, 91, 221, 147, 248, 169, 244, 232, 0, 131, 254, 31, 254, 169, 244, 57, 4, 156, 238, 31, 254, 169, 244, 57, 4, 39, 240, 255, 255, 255, 255, 99, 3, 208, 232, 10, 255, 121, 255, 14, 2, 130, 254, 10, 255, 121, 255, 14, 2, 103, 248, 155, 252, 255, 255, 0, 0, 5, 243, 197, 251, 169, 244, 223, 1, 44, 250, 240, 253, 121, 255, 244, 0, 136, 249, 22, 255, 85, 11, 107, 7, 77, 211, 147, 248, 85, 11, 232, 0, 200, 247, 255, 255, 0, 0, 99, 3, 175, 200, 31, 254, 85, 11, 57, 4, 68, 217, 31, 254, 85, 11, 57, 4, 90, 217, 10, 255, 133, 0, 14, 2, 125, 212, 10, 255, 133, 0, 14, 2, 93, 213, 197, 251, 85, 11, 223, 1, 241, 231, 155, 252, 0, 0, 0, 0, 196, 231, 240, 253, 133, 0, 244, 0, 247, 216, 107, 7, 85, 11, 22, 255, 148, 194, 232, 0, 85, 11, 147, 248, 255, 214, 57, 4, 85, 11, 31, 254, 4, 206, 57, 4, 85, 11, 31, 254, 17, 209, 99, 3, 0, 0, 255, 255, 48, 194, 14, 2, 133, 0, 10, 255, 242, 218, 14, 2, 133, 0, 10, 255, 254, 203, 0, 0, 0, 0, 155, 252, 84, 227, 223, 1, 85, 11, 197, 251, 81, 211, 244, 0, 133, 0, 240, 253, 242, 223, 107, 7, 169, 244, 22, 255, 54, 190, 232, 0, 169, 244, 147, 248, 122, 206, 99, 3, 255, 255, 255, 255, 144, 176, 57, 4, 169, 244, 31, 254, 111, 185, 57, 4, 169, 244, 31, 254, 195, 185, 14, 2, 121, 255, 10, 255, 66, 184, 14, 2, 121, 255, 10, 255, 148, 176, 223, 1, 169, 244, 197, 251, 139, 193, 0, 0, 255, 255, 155, 252, 57, 194, 244, 0, 121, 255, 240, 253, 110, 184, 147, 248, 169, 244, 22, 255, 162, 194, 22, 255, 169, 244, 147, 248, 1, 215, 197, 251, 169, 244, 31, 254, 22, 206, 197, 251, 169, 244, 31, 254, 190, 205, 155, 252, 255, 255, 255, 255, 172, 217, 240, 253, 121, 255, 10, 255, 139, 219, 240, 253, 121, 255, 10, 255, 56, 230, 255, 255, 255, 255, 155, 252, 139, 226, 31, 254, 169, 244, 197, 251, 240, 211, 10, 255, 121, 255, 240, 253, 204, 223, 147, 248, 85, 11, 22, 255, 68, 190, 22, 255, 85, 11, 147, 248, 124, 206, 155, 252, 0, 0, 255, 255, 200, 198, 197, 251, 85, 11, 31, 254, 128, 185, 197, 251, 85, 11, 31, 254, 157, 182, 240, 253, 133, 0, 10, 255, 188, 184, 240, 253, 133, 0, 10, 255, 255, 197, 31, 254, 85, 11, 197, 251, 23, 194, 255, 255, 0, 0, 155, 252, 181, 193, 10, 255, 133, 0, 240, 253, 82, 184, 232, 0, 169, 244, 107, 7, 84, 211, 107, 7, 169, 244, 232, 0, 200, 247, 0, 0, 255, 255, 99, 3, 177, 206, 223, 1, 169, 244, 57, 4, 73, 217, 223, 1, 169, 244, 57, 4, 137, 216, 244, 0, 121, 255, 14, 2, 120, 212, 244, 0, 121, 255, 14, 2, 63, 213, 57, 4, 169, 244, 223, 1, 0, 232, 99, 3, 255, 255, 0, 0, 241, 231, 14, 2, 121, 255, 244, 0, 251, 216, 232, 0, 85, 11, 107, 7, 100, 221, 107, 7, 85, 11, 232, 0, 131, 254, 223, 1, 85, 11, 57, 4, 165, 238, 223, 1, 85, 11, 57, 4, 121, 238, 0, 0, 0, 0, 99, 3, 165, 248, 244, 0, 133, 0, 14, 2, 39, 254, 244, 0, 133, 0, 14, 2, 228, 247, 99, 3, 0, 0, 0, 0, 86, 243, 57, 4, 85, 11, 223, 1, 101, 250, 14, 2, 133, 0, 244, 0, 157, 249, 255, 255, 255, 255, 99, 3, 114, 233, 10, 255, 121, 255, 14, 2, 255, 255, 10, 255, 121, 255, 14, 2, 255, 255, 155, 252, 255, 255, 0, 0, 255, 255, 240, 253, 121, 255, 244, 0, 255, 255, 31, 254, 85, 11, 57, 4, 156, 223, 31, 254, 85, 11, 57, 4, 98, 209, 155, 252, 0, 0, 0, 0, 129, 232, 99, 3, 0, 0, 255, 255, 130, 190, 14, 2, 133, 0, 10, 255, 231, 216, 14, 2, 133, 0, 10, 255, 183, 198, 0, 0, 0, 0, 155, 252, 250, 226, 244, 0, 133, 0, 240, 253, 148, 222, 57, 4, 169, 244, 31, 254, 112, 189, 57, 4, 169, 244, 31, 254, 101, 181, 0, 0, 255, 255, 155, 252, 15, 192, 155, 252, 255, 255, 255, 255, 110, 216, 240, 253, 121, 255, 10, 255, 173, 217, 240, 253, 121, 255, 10, 255, 41, 230, 255, 255, 255, 255, 155, 252, 224, 225, 10, 255, 121, 255, 240, 253, 132, 222, 197, 251, 85, 11, 31, 254, 46, 189, 197, 251, 85, 11, 31, 254, 66, 178, 255, 255, 0, 0, 155, 252, 21, 191, 223, 1, 169, 244, 57, 4, 125, 224, 223, 1, 169, 244, 57, 4, 152, 208, 99, 3, 255, 255, 0, 0, 244, 231, 0, 0, 0, 0, 99, 3, 255, 255, 244, 0, 133, 0, 14, 2, 255, 255, 244, 0, 133, 0, 14, 2, 255, 255, 99, 3, 0, 0, 0, 0, 255, 255, 14, 2, 133, 0, 244, 0, 255, 255, 150, 168, 230, 82, 109, 59, 248, 195, 50, 175, 19, 82, 208, 176, 45, 84, 119, 155, 209, 72, 117, 47, 64, 213, 88, 160, 169, 70, 226, 50, 205, 201, 95, 181, 7, 76, 122, 46, 241, 208, 107, 176, 92, 84, 129, 192, 224, 62, 146, 187, 80, 69, 193, 181, 163, 72, 237, 181, 247, 72, 232, 195, 145, 65, 110, 190, 185, 52, 131, 187, 182, 65, 153, 197, 76, 56, 135, 195, 254, 59, 73, 130, 114, 143, 155, 91, 32, 171, 75, 115, 177, 158, 104, 114, 108, 157, 134, 146, 254, 161, 69, 123, 133, 174, 5, 134, 171, 178, 177, 104, 57, 175, 82, 102, 198, 166, 0, 117, 200, 173, 207, 111, 156, 125, 45, 82, 173, 166, 78, 78, 204, 118, 102, 91, 47, 143, 111, 91, 250, 142, 75, 65, 234, 134, 148, 62, 130, 145, 252, 83, 188, 157, 230, 66, 39, 157, 118, 64, 28, 143, 183, 125, 142, 112, 101, 164, 225, 84, 185, 140, 85, 97, 159, 140, 47, 97, 162, 121, 164, 93, 24, 133, 200, 81, 12, 139, 181, 86, 205, 150, 52, 80, 235, 153, 162, 89, 232, 138, 34, 82, 44, 144, 101, 130, 210, 173, 84, 89, 189, 160, 215, 145, 150, 164, 218, 112, 230, 164, 245, 110, 143, 190, 163, 121, 71, 181, 84, 134, 25, 172, 204, 98, 249, 188, 233, 97, 142, 191, 187, 112, 143, 79, 151, 171, 122, 63, 27, 193, 191, 60, 122, 161, 51, 74, 73, 183, 186, 75, 57, 186, 193, 59, 167, 189, 46, 52, 197, 170, 6, 68, 151, 189, 255, 58, 152, 200, 141, 60, 46, 196, 99, 87, 15, 173, 147, 196, 9, 60, 194, 80, 222, 173, 241, 80, 28, 174, 167, 87, 245, 168, 233, 208, 36, 43, 158, 215, 53, 50, 123, 204, 112, 53, 39, 74, 115, 179, 107, 209, 242, 46, 9, 173, 21, 75, 172, 216, 107, 103, 35, 189, 249, 78, 158, 198, 131, 211, 235, 243, 165, 121, 22, 183, 173, 68, 16, 175, 253, 74, 98, 183, 217, 44, 183, 131, 71, 167, 53, 106, 179, 170, 135, 112, 105, 177, 238, 89, 109, 170, 131, 103, 249, 169, 116, 88, 218, 149, 45, 103, 171, 132, 198, 75, 211, 162, 23, 131, 114, 92, 80, 150, 145, 85, 98, 149, 201, 90, 62, 165, 177, 84, 234, 152, 138, 86, 135, 166, 35, 106, 170, 153, 1, 121, 11, 180, 154, 92, 164, 73, 115, 188, 224, 82, 220, 183, 235, 74, 165, 212, 75, 67, 110, 160, 122, 35, 216, 151, 129, 27, 65, 134, 177, 62, 90, 35, 3, 0, 38, 123)
}]
blend_shape_mode = 0
shadow_mesh = SubResource("ArrayMesh_ett5u")

[node name="main3D" type="Node3D"]

[node name="Control" type="Control" parent="."]
layout_mode = 3
anchors_preset = 0
offset_right = 40.0
offset_bottom = 40.0

[node name="SubViewportContainer" type="SubViewportContainer" parent="Control"]
layout_mode = 1
anchors_preset = -1
anchor_left = 2.775
anchor_top = -4.025
anchor_right = 50.775
anchor_bottom = 22.975
grow_horizontal = 2
grow_vertical = 2
scale = Vector2(0.8, 0.846)
metadata/_edit_use_anchors_ = true

[node name="SubViewport" type="SubViewport" parent="Control/SubViewportContainer"]
transparent_bg = true
handle_input_locally = false
size = Vector2i(1920, 1080)
size_2d_override_stretch = true
render_target_update_mode = 4

[node name="Camera" type="Camera3D" parent="Control/SubViewportContainer/SubViewport"]
transform = Transform3D(0.81965, -0.146799, 0.553736, -5.28991e-07, 0.966609, 0.256255, -0.572864, -0.21004, 0.792281, 7.93545, 4.55176, 11.1838)
current = true
fov = 22.8952
near = 0.1
far = 100.0

[node name="WorldEnvironment" type="WorldEnvironment" parent="Control/SubViewportContainer/SubViewport"]
environment = SubResource("Environment_4ww7c")

[node name="DirectionalLight3D" type="DirectionalLight3D" parent="Control/SubViewportContainer/SubViewport"]
transform = Transform3D(-0.782295, 0.550697, -0.291113, -0.0598857, 0.398689, 0.915129, 0.620023, 0.733334, -0.278914, 0, 3.64791, 0)
shadow_enabled = true

[node name="Cubo_example" type="CuboExample" parent="Control/SubViewportContainer/SubViewport"]
transform = Transform3D(1, 0, 0, 0, 1, 0, 0, 0, 1, 0.11967, 1, 0.077836)
mesh = SubResource("ArrayMesh_kcpvt")
skeleton = NodePath("")
